ehsan=1
chandta= 1
status:sat
variable : L_1_1_1   value : 1
variable : L_1_1_2   value : 0
variable : L_1_1_3   value : 0
variable : L_2_1_2   value : 0
variable : L_2_1_3   value : 1
variable : L_2_1_4   value : 1
variable : V_1_2_1_1   value : 0
variable : V_1_2_1_2   value : 0
variable : V_1_2_1_3   value : 0
result= 1 0 0 0 1 1 0 0 0 inside tabdil
inja
No of Unreferenced Bdds 9
inja2
No of Unreferenced Bdds 9
inja2
No of Unreferenced Bdds 10
inja2
No of Unreferenced Bdds 10
inja2
No of Unreferenced Bdds 10
inja2
No of Unreferenced Bdds 10
inja2
No of Unreferenced Bdds 10
inja2
No of Unreferenced Bdds 10
inja2
No of Unreferenced Bdds 10
inja3
No of Unreferenced Bdds 10
inja bayad yeki bashe 
No of Unreferenced Bdds 10

line5= 1 0 0 0 1 1 0 0 0 
----------------------------------
chandta= 2
status:sat
variable : L_1_1_1   value : 1
variable : L_1_1_2   value : 1
variable : L_1_1_3   value : 0
variable : L_2_1_2   value : 0
variable : L_2_1_3   value : 0
variable : L_2_1_4   value : 0
variable : V_1_2_1_1   value : 0
variable : V_1_2_1_2   value : 0
variable : V_1_2_1_3   value : 0
result= 1 1 0 0 0 0 0 0 0  
 inside saver 
 1- No of Unreferenced Bdds 10

 2- No of Unreferenced Bdds 10
3- No of Unreferenced Bdds 18
inja bayad sefr beshe : 
No of Unreferenced Bdds 16
4- No of Unreferenced Bdds 16
just added end of saver : 
No of Unreferenced Bdds 14

line5= 1 1 0 0 0 0 0 0 0 
----------------------------------
chandta= 3
status:sat
variable : L_1_1_1   value : 0
variable : L_1_1_2   value : 1
variable : L_1_1_3   value : 0
variable : L_2_1_2   value : 0
variable : L_2_1_3   value : 0
variable : L_2_1_4   value : 0
variable : V_1_2_1_1   value : 0
variable : V_1_2_1_2   value : 0
variable : V_1_2_1_3   value : 0
result= 0 1 0 0 0 0 0 0 0  
 inside saver 
 1- No of Unreferenced Bdds 14

 2- No of Unreferenced Bdds 14
3- No of Unreferenced Bdds 22
inja bayad sefr beshe : 
No of Unreferenced Bdds 16
4- No of Unreferenced Bdds 16
just added end of saver : 
No of Unreferenced Bdds 15

line5= 0 1 0 0 0 0 0 0 0 
----------------------------------
chandta= 4
status:sat
variable : L_1_1_1   value : 0
variable : L_1_1_2   value : 1
variable : L_1_1_3   value : 0
variable : L_2_1_2   value : 0
variable : L_2_1_3   value : 0
variable : L_2_1_4   value : 0
variable : V_1_2_1_1   value : 0
variable : V_1_2_1_2   value : 0
variable : V_1_2_1_3   value : 1
result= 0 1 0 0 0 0 0 0 1  
 inside saver 
 1- No of Unreferenced Bdds 15

 2- No of Unreferenced Bdds 15
3- No of Unreferenced Bdds 23
inja bayad sefr beshe : 
No of Unreferenced Bdds 23
4- No of Unreferenced Bdds 23
just added end of saver : 
No of Unreferenced Bdds 21

line5= 0 1 0 0 0 0 0 0 1 
----------------------------------
chandta= 5
status:sat
variable : L_1_1_1   value : 0
variable : L_1_1_2   value : 0
variable : L_1_1_3   value : 0
variable : L_2_1_2   value : 0
variable : L_2_1_3   value : 1
variable : L_2_1_4   value : 0
variable : V_1_2_1_1   value : 0
variable : V_1_2_1_2   value : 0
variable : V_1_2_1_3   value : 1
result= 0 0 0 0 1 0 0 0 1  
 inside saver 
 1- No of Unreferenced Bdds 21

 2- No of Unreferenced Bdds 21
3- No of Unreferenced Bdds 28
inja bayad sefr beshe : 
No of Unreferenced Bdds 29
4- No of Unreferenced Bdds 29
just added end of saver : 
No of Unreferenced Bdds 27

line5= 0 0 0 0 1 0 0 0 1 
----------------------------------
chandta= 6
status:sat
variable : L_1_1_1   value : 1
variable : L_1_1_2   value : 0
variable : L_1_1_3   value : 0
variable : L_2_1_2   value : 0
variable : L_2_1_3   value : 1
variable : L_2_1_4   value : 0
variable : V_1_2_1_1   value : 0
variable : V_1_2_1_2   value : 0
variable : V_1_2_1_3   value : 1
result= 1 0 0 0 1 0 0 0 1  
 inside saver 
 1- No of Unreferenced Bdds 27

 2- No of Unreferenced Bdds 27
3- No of Unreferenced Bdds 34
inja bayad sefr beshe : 
No of Unreferenced Bdds 29
4- No of Unreferenced Bdds 29
just added end of saver : 
No of Unreferenced Bdds 27

line5= 1 0 0 0 1 0 0 0 1 
----------------------------------
chandta= 7
status:sat
variable : L_1_1_1   value : 1
variable : L_1_1_2   value : 0
variable : L_1_1_3   value : 0
variable : L_2_1_2   value : 0
variable : L_2_1_3   value : 0
variable : L_2_1_4   value : 0
variable : V_1_2_1_1   value : 0
variable : V_1_2_1_2   value : 0
variable : V_1_2_1_3   value : 1
result= 1 0 0 0 0 0 0 0 1  
 inside saver 
 1- No of Unreferenced Bdds 27

 2- No of Unreferenced Bdds 27
3- No of Unreferenced Bdds 34
inja bayad sefr beshe : 
No of Unreferenced Bdds 32
4- No of Unreferenced Bdds 32
just added end of saver : 
No of Unreferenced Bdds 27

line5= 1 0 0 0 0 0 0 0 1 
----------------------------------
chandta= 8
status:sat
variable : L_1_1_1   value : 0
variable : L_1_1_2   value : 0
variable : L_1_1_3   value : 0
variable : L_2_1_2   value : 0
variable : L_2_1_3   value : 0
variable : L_2_1_4   value : 0
variable : V_1_2_1_1   value : 0
variable : V_1_2_1_2   value : 0
variable : V_1_2_1_3   value : 1
result= 0 0 0 0 0 0 0 0 1  
 inside saver 
 1- No of Unreferenced Bdds 27

 2- No of Unreferenced Bdds 27
3- No of Unreferenced Bdds 34
inja bayad sefr beshe : 
No of Unreferenced Bdds 32
4- No of Unreferenced Bdds 32
just added end of saver : 
No of Unreferenced Bdds 26

line5= 0 0 0 0 0 0 0 0 1 
----------------------------------
chandta= 9
status:sat
variable : L_1_1_1   value : 1
variable : L_1_1_2   value : 0
variable : L_1_1_3   value : 0
variable : L_2_1_2   value : 0
variable : L_2_1_3   value : 0
variable : L_2_1_4   value : 0
variable : V_1_2_1_1   value : 0
variable : V_1_2_1_2   value : 0
variable : V_1_2_1_3   value : 0
result= 1 0 0 0 0 0 0 0 0  
 inside saver 
 1- No of Unreferenced Bdds 26

 2- No of Unreferenced Bdds 26
3- No of Unreferenced Bdds 33
inja bayad sefr beshe : 
No of Unreferenced Bdds 28
4- No of Unreferenced Bdds 28
just added end of saver : 
No of Unreferenced Bdds 26

line5= 1 0 0 0 0 0 0 0 0 
----------------------------------
chandta= 10
status:sat
variable : L_1_1_1   value : 1
variable : L_1_1_2   value : 0
variable : L_1_1_3   value : 0
variable : L_2_1_2   value : 0
variable : L_2_1_3   value : 1
variable : L_2_1_4   value : 0
variable : V_1_2_1_1   value : 0
variable : V_1_2_1_2   value : 0
variable : V_1_2_1_3   value : 0
result= 1 0 0 0 1 0 0 0 0  
 inside saver 
 1- No of Unreferenced Bdds 26

 2- No of Unreferenced Bdds 26
3- No of Unreferenced Bdds 33
inja bayad sefr beshe : 
No of Unreferenced Bdds 31
4- No of Unreferenced Bdds 31
just added end of saver : 
No of Unreferenced Bdds 26

line5= 1 0 0 0 1 0 0 0 0 
----------------------------------
chandta= 11
status:sat
variable : L_1_1_1   value : 0
variable : L_1_1_2   value : 0
variable : L_1_1_3   value : 0
variable : L_2_1_2   value : 0
variable : L_2_1_3   value : 0
variable : L_2_1_4   value : 0
variable : V_1_2_1_1   value : 0
variable : V_1_2_1_2   value : 0
variable : V_1_2_1_3   value : 0
result= 0 0 0 0 0 0 0 0 0  
 inside saver 
 1- No of Unreferenced Bdds 26

 2- No of Unreferenced Bdds 26
3- No of Unreferenced Bdds 33
inja bayad sefr beshe : 
No of Unreferenced Bdds 28
4- No of Unreferenced Bdds 28
just added end of saver : 
No of Unreferenced Bdds 27

line5= 0 0 0 0 0 0 0 0 0 
----------------------------------
chandta= 12
status:sat
variable : L_1_1_1   value : 0
variable : L_1_1_2   value : 0
variable : L_1_1_3   value : 0
variable : L_2_1_2   value : 0
variable : L_2_1_3   value : 1
variable : L_2_1_4   value : 0
variable : V_1_2_1_1   value : 0
variable : V_1_2_1_2   value : 0
variable : V_1_2_1_3   value : 0
result= 0 0 0 0 1 0 0 0 0  
 inside saver 
 1- No of Unreferenced Bdds 27

 2- No of Unreferenced Bdds 27
3- No of Unreferenced Bdds 34
inja bayad sefr beshe : 
No of Unreferenced Bdds 32
4- No of Unreferenced Bdds 32
just added end of saver : 
No of Unreferenced Bdds 23

line5= 0 0 0 0 1 0 0 0 0 
----------------------------------
chandta= 13
status:sat
variable : L_1_1_1   value : 1
variable : L_1_1_2   value : 1
variable : L_1_1_3   value : 0
variable : L_2_1_2   value : 0
variable : L_2_1_3   value : 0
variable : L_2_1_4   value : 0
variable : V_1_2_1_1   value : 0
variable : V_1_2_1_2   value : 0
variable : V_1_2_1_3   value : 1
result= 1 1 0 0 0 0 0 0 1  
 inside saver 
 1- No of Unreferenced Bdds 23

 2- No of Unreferenced Bdds 23
3- No of Unreferenced Bdds 30
inja bayad sefr beshe : 
No of Unreferenced Bdds 31
4- No of Unreferenced Bdds 31
just added end of saver : 
No of Unreferenced Bdds 19

line5= 1 1 0 0 0 0 0 0 1 
----------------------------------
chandta= 14
status:sat
variable : L_1_1_1   value : 1
variable : L_1_1_2   value : 1
variable : L_1_1_3   value : 0
variable : L_2_1_2   value : 1
variable : L_2_1_3   value : 0
variable : L_2_1_4   value : 0
variable : V_1_2_1_1   value : 1
variable : V_1_2_1_2   value : 0
variable : V_1_2_1_3   value : 0
result= 1 1 0 1 0 0 1 0 0  
 inside saver 
 1- No of Unreferenced Bdds 19

 2- No of Unreferenced Bdds 19
3- No of Unreferenced Bdds 26
inja bayad sefr beshe : 
No of Unreferenced Bdds 26
4- No of Unreferenced Bdds 26
just added end of saver : 
No of Unreferenced Bdds 24

line5= 1 1 0 1 0 0 1 0 0 
----------------------------------
chandta= 15
status:sat
variable : L_1_1_1   value : 1
variable : L_1_1_2   value : 1
variable : L_1_1_3   value : 0
variable : L_2_1_2   value : 1
variable : L_2_1_3   value : 0
variable : L_2_1_4   value : 0
variable : V_1_2_1_1   value : 1
variable : V_1_2_1_2   value : 0
variable : V_1_2_1_3   value : 1
result= 1 1 0 1 0 0 1 0 1  
 inside saver 
 1- No of Unreferenced Bdds 24

 2- No of Unreferenced Bdds 24
3- No of Unreferenced Bdds 31
inja bayad sefr beshe : 
No of Unreferenced Bdds 32
4- No of Unreferenced Bdds 32
just added end of saver : 
No of Unreferenced Bdds 24

line5= 1 1 0 1 0 0 1 0 1 
----------------------------------
chandta= 16
status:sat
variable : L_1_1_1   value : 1
variable : L_1_1_2   value : 0
variable : L_1_1_3   value : 0
variable : L_2_1_2   value : 1
variable : L_2_1_3   value : 1
variable : L_2_1_4   value : 0
variable : V_1_2_1_1   value : 1
variable : V_1_2_1_2   value : 0
variable : V_1_2_1_3   value : 0
result= 1 0 0 1 1 0 1 0 0  
 inside saver 
 1- No of Unreferenced Bdds 24

 2- No of Unreferenced Bdds 24
3- No of Unreferenced Bdds 31
inja bayad sefr beshe : 
No of Unreferenced Bdds 31
4- No of Unreferenced Bdds 31
just added end of saver : 
No of Unreferenced Bdds 27

line5= 1 0 0 1 1 0 1 0 0 
----------------------------------
chandta= 17
status:sat
variable : L_1_1_1   value : 1
variable : L_1_1_2   value : 0
variable : L_1_1_3   value : 0
variable : L_2_1_2   value : 1
variable : L_2_1_3   value : 1
variable : L_2_1_4   value : 0
variable : V_1_2_1_1   value : 1
variable : V_1_2_1_2   value : 0
variable : V_1_2_1_3   value : 1
result= 1 0 0 1 1 0 1 0 1  
 inside saver 
 1- No of Unreferenced Bdds 27

 2- No of Unreferenced Bdds 27
3- No of Unreferenced Bdds 34
inja bayad sefr beshe : 
No of Unreferenced Bdds 35
4- No of Unreferenced Bdds 35
just added end of saver : 
No of Unreferenced Bdds 25

line5= 1 0 0 1 1 0 1 0 1 
----------------------------------
chandta= 18
status:sat
variable : L_1_1_1   value : 1
variable : L_1_1_2   value : 0
variable : L_1_1_3   value : 0
variable : L_2_1_2   value : 1
variable : L_2_1_3   value : 0
variable : L_2_1_4   value : 0
variable : V_1_2_1_1   value : 1
variable : V_1_2_1_2   value : 0
variable : V_1_2_1_3   value : 0
result= 1 0 0 1 0 0 1 0 0  
 inside saver 
 1- No of Unreferenced Bdds 25

 2- No of Unreferenced Bdds 25
3- No of Unreferenced Bdds 32
inja bayad sefr beshe : 
No of Unreferenced Bdds 32
4- No of Unreferenced Bdds 32
just added end of saver : 
No of Unreferenced Bdds 27

line5= 1 0 0 1 0 0 1 0 0 
----------------------------------
chandta= 19
status:sat
variable : L_1_1_1   value : 1
variable : L_1_1_2   value : 0
variable : L_1_1_3   value : 0
variable : L_2_1_2   value : 1
variable : L_2_1_3   value : 0
variable : L_2_1_4   value : 0
variable : V_1_2_1_1   value : 1
variable : V_1_2_1_2   value : 0
variable : V_1_2_1_3   value : 1
result= 1 0 0 1 0 0 1 0 1  
 inside saver 
 1- No of Unreferenced Bdds 27

 2- No of Unreferenced Bdds 27
3- No of Unreferenced Bdds 34
inja bayad sefr beshe : 
No of Unreferenced Bdds 35
4- No of Unreferenced Bdds 35
just added end of saver : 
No of Unreferenced Bdds 24

line5= 1 0 0 1 0 0 1 0 1 
----------------------------------
chandta= 20
status:sat
variable : L_1_1_1   value : 0
variable : L_1_1_2   value : 0
variable : L_1_1_3   value : 0
variable : L_2_1_2   value : 1
variable : L_2_1_3   value : 1
variable : L_2_1_4   value : 0
variable : V_1_2_1_1   value : 0
variable : V_1_2_1_2   value : 0
variable : V_1_2_1_3   value : 0
result= 0 0 0 1 1 0 0 0 0  
 inside saver 
 1- No of Unreferenced Bdds 24

 2- No of Unreferenced Bdds 24
3- No of Unreferenced Bdds 31
inja bayad sefr beshe : 
No of Unreferenced Bdds 30
4- No of Unreferenced Bdds 30
just added end of saver : 
No of Unreferenced Bdds 26

line5= 0 0 0 1 1 0 0 0 0 
----------------------------------
chandta= 21
status:sat
variable : L_1_1_1   value : 0
variable : L_1_1_2   value : 0
variable : L_1_1_3   value : 0
variable : L_2_1_2   value : 1
variable : L_2_1_3   value : 0
variable : L_2_1_4   value : 0
variable : V_1_2_1_1   value : 0
variable : V_1_2_1_2   value : 0
variable : V_1_2_1_3   value : 0
result= 0 0 0 1 0 0 0 0 0  
 inside saver 
 1- No of Unreferenced Bdds 26

 2- No of Unreferenced Bdds 26
3- No of Unreferenced Bdds 33
inja bayad sefr beshe : 
No of Unreferenced Bdds 31
4- No of Unreferenced Bdds 31
just added end of saver : 
No of Unreferenced Bdds 25

line5= 0 0 0 1 0 0 0 0 0 
----------------------------------
chandta= 22
status:sat
variable : L_1_1_1   value : 0
variable : L_1_1_2   value : 0
variable : L_1_1_3   value : 0
variable : L_2_1_2   value : 1
variable : L_2_1_3   value : 1
variable : L_2_1_4   value : 0
variable : V_1_2_1_1   value : 0
variable : V_1_2_1_2   value : 0
variable : V_1_2_1_3   value : 1
result= 0 0 0 1 1 0 0 0 1  
 inside saver 
 1- No of Unreferenced Bdds 25

 2- No of Unreferenced Bdds 25
3- No of Unreferenced Bdds 32
inja bayad sefr beshe : 
No of Unreferenced Bdds 33
4- No of Unreferenced Bdds 33
just added end of saver : 
No of Unreferenced Bdds 26

line5= 0 0 0 1 1 0 0 0 1 
----------------------------------
chandta= 23
status:sat
variable : L_1_1_1   value : 0
variable : L_1_1_2   value : 0
variable : L_1_1_3   value : 0
variable : L_2_1_2   value : 1
variable : L_2_1_3   value : 0
variable : L_2_1_4   value : 0
variable : V_1_2_1_1   value : 0
variable : V_1_2_1_2   value : 0
variable : V_1_2_1_3   value : 1
result= 0 0 0 1 0 0 0 0 1  
 inside saver 
 1- No of Unreferenced Bdds 26

 2- No of Unreferenced Bdds 26
3- No of Unreferenced Bdds 33
inja bayad sefr beshe : 
No of Unreferenced Bdds 34
4- No of Unreferenced Bdds 34
just added end of saver : 
No of Unreferenced Bdds 23

line5= 0 0 0 1 0 0 0 0 1 
----------------------------------
chandta= 24
status:sat
variable : L_1_1_1   value : 0
variable : L_1_1_2   value : 1
variable : L_1_1_3   value : 0
variable : L_2_1_2   value : 1
variable : L_2_1_3   value : 0
variable : L_2_1_4   value : 0
variable : V_1_2_1_1   value : 0
variable : V_1_2_1_2   value : 0
variable : V_1_2_1_3   value : 1
result= 0 1 0 1 0 0 0 0 1  
 inside saver 
 1- No of Unreferenced Bdds 23

 2- No of Unreferenced Bdds 23
3- No of Unreferenced Bdds 30
inja bayad sefr beshe : 
No of Unreferenced Bdds 31
4- No of Unreferenced Bdds 31
just added end of saver : 
No of Unreferenced Bdds 27

line5= 0 1 0 1 0 0 0 0 1 
----------------------------------
chandta= 25
status:sat
variable : L_1_1_1   value : 0
variable : L_1_1_2   value : 1
variable : L_1_1_3   value : 0
variable : L_2_1_2   value : 1
variable : L_2_1_3   value : 0
variable : L_2_1_4   value : 0
variable : V_1_2_1_1   value : 0
variable : V_1_2_1_2   value : 0
variable : V_1_2_1_3   value : 0
result= 0 1 0 1 0 0 0 0 0  
 inside saver 
 1- No of Unreferenced Bdds 27

 2- No of Unreferenced Bdds 27
3- No of Unreferenced Bdds 34
inja bayad sefr beshe : 
No of Unreferenced Bdds 33
4- No of Unreferenced Bdds 33
just added end of saver : 
No of Unreferenced Bdds 22

line5= 0 1 0 1 0 0 0 0 0 
----------------------------------
chandta= 26
status:sat
variable : L_1_1_1   value : 0
variable : L_1_1_2   value : 1
variable : L_1_1_3   value : 0
variable : L_2_1_2   value : 0
variable : L_2_1_3   value : 1
variable : L_2_1_4   value : 0
variable : V_1_2_1_1   value : 0
variable : V_1_2_1_2   value : 1
variable : V_1_2_1_3   value : 1
result= 0 1 0 0 1 0 0 1 1  
 inside saver 
 1- No of Unreferenced Bdds 22

 2- No of Unreferenced Bdds 22
3- No of Unreferenced Bdds 29
inja bayad sefr beshe : 
No of Unreferenced Bdds 30
4- No of Unreferenced Bdds 30
just added end of saver : 
No of Unreferenced Bdds 27

line5= 0 1 0 0 1 0 0 1 1 
----------------------------------
chandta= 27
status:sat
variable : L_1_1_1   value : 0
variable : L_1_1_2   value : 1
variable : L_1_1_3   value : 0
variable : L_2_1_2   value : 1
variable : L_2_1_3   value : 1
variable : L_2_1_4   value : 0
variable : V_1_2_1_1   value : 0
variable : V_1_2_1_2   value : 1
variable : V_1_2_1_3   value : 1
result= 0 1 0 1 1 0 0 1 1  
 inside saver 
 1- No of Unreferenced Bdds 27

 2- No of Unreferenced Bdds 27
3- No of Unreferenced Bdds 34
inja bayad sefr beshe : 
No of Unreferenced Bdds 32
4- No of Unreferenced Bdds 32
just added end of saver : 
No of Unreferenced Bdds 26

line5= 0 1 0 1 1 0 0 1 1 
----------------------------------
chandta= 28
status:sat
variable : L_1_1_1   value : 1
variable : L_1_1_2   value : 1
variable : L_1_1_3   value : 0
variable : L_2_1_2   value : 1
variable : L_2_1_3   value : 1
variable : L_2_1_4   value : 0
variable : V_1_2_1_1   value : 1
variable : V_1_2_1_2   value : 1
variable : V_1_2_1_3   value : 1
result= 1 1 0 1 1 0 1 1 1  
 inside saver 
 1- No of Unreferenced Bdds 26

 2- No of Unreferenced Bdds 26
3- No of Unreferenced Bdds 33
inja bayad sefr beshe : 
No of Unreferenced Bdds 33
4- No of Unreferenced Bdds 33
just added end of saver : 
No of Unreferenced Bdds 28

line5= 1 1 0 1 1 0 1 1 1 
----------------------------------
chandta= 29
status:sat
variable : L_1_1_1   value : 1
variable : L_1_1_2   value : 1
variable : L_1_1_3   value : 0
variable : L_2_1_2   value : 0
variable : L_2_1_3   value : 1
variable : L_2_1_4   value : 0
variable : V_1_2_1_1   value : 0
variable : V_1_2_1_2   value : 1
variable : V_1_2_1_3   value : 1
result= 1 1 0 0 1 0 0 1 1  
 inside saver 
 1- No of Unreferenced Bdds 28

 2- No of Unreferenced Bdds 28
3- No of Unreferenced Bdds 35
inja bayad sefr beshe : 
No of Unreferenced Bdds 33
4- No of Unreferenced Bdds 33
just added end of saver : 
No of Unreferenced Bdds 27

line5= 1 1 0 0 1 0 0 1 1 
----------------------------------
chandta= 30
status:sat
variable : L_1_1_1   value : 1
variable : L_1_1_2   value : 1
variable : L_1_1_3   value : 0
variable : L_2_1_2   value : 1
variable : L_2_1_3   value : 1
variable : L_2_1_4   value : 0
variable : V_1_2_1_1   value : 1
variable : V_1_2_1_2   value : 1
variable : V_1_2_1_3   value : 0
result= 1 1 0 1 1 0 1 1 0  
 inside saver 
 1- No of Unreferenced Bdds 27

 2- No of Unreferenced Bdds 27
3- No of Unreferenced Bdds 34
inja bayad sefr beshe : 
No of Unreferenced Bdds 35
4- No of Unreferenced Bdds 35
just added end of saver : 
No of Unreferenced Bdds 27

line5= 1 1 0 1 1 0 1 1 0 
----------------------------------
chandta= 31
status:sat
variable : L_1_1_1   value : 0
variable : L_1_1_2   value : 1
variable : L_1_1_3   value : 0
variable : L_2_1_2   value : 0
variable : L_2_1_3   value : 1
variable : L_2_1_4   value : 0
variable : V_1_2_1_1   value : 0
variable : V_1_2_1_2   value : 1
variable : V_1_2_1_3   value : 0
result= 0 1 0 0 1 0 0 1 0  
 inside saver 
 1- No of Unreferenced Bdds 27

 2- No of Unreferenced Bdds 27
3- No of Unreferenced Bdds 34
inja bayad sefr beshe : 
No of Unreferenced Bdds 35
4- No of Unreferenced Bdds 35
just added end of saver : 
No of Unreferenced Bdds 31

line5= 0 1 0 0 1 0 0 1 0 
----------------------------------
chandta= 32
status:sat
variable : L_1_1_1   value : 0
variable : L_1_1_2   value : 1
variable : L_1_1_3   value : 0
variable : L_2_1_2   value : 1
variable : L_2_1_3   value : 1
variable : L_2_1_4   value : 0
variable : V_1_2_1_1   value : 0
variable : V_1_2_1_2   value : 1
variable : V_1_2_1_3   value : 0
result= 0 1 0 1 1 0 0 1 0  
 inside saver 
 1- No of Unreferenced Bdds 31

 2- No of Unreferenced Bdds 31
3- No of Unreferenced Bdds 38
inja bayad sefr beshe : 
No of Unreferenced Bdds 39
4- No of Unreferenced Bdds 39
just added end of saver : 
No of Unreferenced Bdds 30

line5= 0 1 0 1 1 0 0 1 0 
----------------------------------
chandta= 33
status:sat
variable : L_1_1_1   value : 1
variable : L_1_1_2   value : 1
variable : L_1_1_3   value : 0
variable : L_2_1_2   value : 0
variable : L_2_1_3   value : 1
variable : L_2_1_4   value : 0
variable : V_1_2_1_1   value : 0
variable : V_1_2_1_2   value : 1
variable : V_1_2_1_3   value : 0
result= 1 1 0 0 1 0 0 1 0  
 inside saver 
 1- No of Unreferenced Bdds 30

 2- No of Unreferenced Bdds 30
3- No of Unreferenced Bdds 37
inja bayad sefr beshe : 
No of Unreferenced Bdds 38
4- No of Unreferenced Bdds 38
just added end of saver : 
No of Unreferenced Bdds 26

line5= 1 1 0 0 1 0 0 1 0 
----------------------------------
chandta= 34
status:sat
variable : L_1_1_1   value : 1
variable : L_1_1_2   value : 0
variable : L_1_1_3   value : 1
variable : L_2_1_2   value : 1
variable : L_2_1_3   value : 0
variable : L_2_1_4   value : 0
variable : V_1_2_1_1   value : 1
variable : V_1_2_1_2   value : 0
variable : V_1_2_1_3   value : 0
result= 1 0 1 1 0 0 1 0 0  
 inside saver 
 1- No of Unreferenced Bdds 26

 2- No of Unreferenced Bdds 26
3- No of Unreferenced Bdds 33
inja bayad sefr beshe : 
No of Unreferenced Bdds 33
4- No of Unreferenced Bdds 33
just added end of saver : 
No of Unreferenced Bdds 30

line5= 1 0 1 1 0 0 1 0 0 
----------------------------------
chandta= 35
status:sat
variable : L_1_1_1   value : 1
variable : L_1_1_2   value : 1
variable : L_1_1_3   value : 1
variable : L_2_1_2   value : 1
variable : L_2_1_3   value : 0
variable : L_2_1_4   value : 0
variable : V_1_2_1_1   value : 1
variable : V_1_2_1_2   value : 0
variable : V_1_2_1_3   value : 0
result= 1 1 1 1 0 0 1 0 0  
 inside saver 
 1- No of Unreferenced Bdds 30

 2- No of Unreferenced Bdds 30
3- No of Unreferenced Bdds 37
inja bayad sefr beshe : 
No of Unreferenced Bdds 33
4- No of Unreferenced Bdds 33
just added end of saver : 
No of Unreferenced Bdds 30

line5= 1 1 1 1 0 0 1 0 0 
----------------------------------
chandta= 36
status:sat
variable : L_1_1_1   value : 1
variable : L_1_1_2   value : 0
variable : L_1_1_3   value : 1
variable : L_2_1_2   value : 1
variable : L_2_1_3   value : 0
variable : L_2_1_4   value : 0
variable : V_1_2_1_1   value : 1
variable : V_1_2_1_2   value : 0
variable : V_1_2_1_3   value : 1
result= 1 0 1 1 0 0 1 0 1  
 inside saver 
 1- No of Unreferenced Bdds 30

 2- No of Unreferenced Bdds 30
3- No of Unreferenced Bdds 37
inja bayad sefr beshe : 
No of Unreferenced Bdds 38
4- No of Unreferenced Bdds 38
just added end of saver : 
No of Unreferenced Bdds 32

line5= 1 0 1 1 0 0 1 0 1 
----------------------------------
chandta= 37
status:sat
variable : L_1_1_1   value : 1
variable : L_1_1_2   value : 1
variable : L_1_1_3   value : 1
variable : L_2_1_2   value : 1
variable : L_2_1_3   value : 0
variable : L_2_1_4   value : 0
variable : V_1_2_1_1   value : 1
variable : V_1_2_1_2   value : 0
variable : V_1_2_1_3   value : 1
result= 1 1 1 1 0 0 1 0 1  
 inside saver 
 1- No of Unreferenced Bdds 32

 2- No of Unreferenced Bdds 32
3- No of Unreferenced Bdds 39
inja bayad sefr beshe : 
No of Unreferenced Bdds 40
4- No of Unreferenced Bdds 40
just added end of saver : 
No of Unreferenced Bdds 28

line5= 1 1 1 1 0 0 1 0 1 
----------------------------------
chandta= 38
status:sat
variable : L_1_1_1   value : 1
variable : L_1_1_2   value : 0
variable : L_1_1_3   value : 1
variable : L_2_1_2   value : 0
variable : L_2_1_3   value : 0
variable : L_2_1_4   value : 0
variable : V_1_2_1_1   value : 0
variable : V_1_2_1_2   value : 0
variable : V_1_2_1_3   value : 1
result= 1 0 1 0 0 0 0 0 1  
 inside saver 
 1- No of Unreferenced Bdds 28

 2- No of Unreferenced Bdds 28
3- No of Unreferenced Bdds 35
inja bayad sefr beshe : 
No of Unreferenced Bdds 36
4- No of Unreferenced Bdds 36
just added end of saver : 
No of Unreferenced Bdds 33

line5= 1 0 1 0 0 0 0 0 1 
----------------------------------
chandta= 39
status:sat
variable : L_1_1_1   value : 1
variable : L_1_1_2   value : 1
variable : L_1_1_3   value : 1
variable : L_2_1_2   value : 0
variable : L_2_1_3   value : 0
variable : L_2_1_4   value : 0
variable : V_1_2_1_1   value : 0
variable : V_1_2_1_2   value : 0
variable : V_1_2_1_3   value : 1
result= 1 1 1 0 0 0 0 0 1  
 inside saver 
 1- No of Unreferenced Bdds 33

 2- No of Unreferenced Bdds 33
3- No of Unreferenced Bdds 40
inja bayad sefr beshe : 
No of Unreferenced Bdds 37
4- No of Unreferenced Bdds 37
just added end of saver : 
No of Unreferenced Bdds 32

line5= 1 1 1 0 0 0 0 0 1 
----------------------------------
chandta= 40
status:sat
variable : L_1_1_1   value : 1
variable : L_1_1_2   value : 0
variable : L_1_1_3   value : 1
variable : L_2_1_2   value : 0
variable : L_2_1_3   value : 1
variable : L_2_1_4   value : 0
variable : V_1_2_1_1   value : 0
variable : V_1_2_1_2   value : 0
variable : V_1_2_1_3   value : 1
result= 1 0 1 0 1 0 0 0 1  
 inside saver 
 1- No of Unreferenced Bdds 32

 2- No of Unreferenced Bdds 32
3- No of Unreferenced Bdds 39
inja bayad sefr beshe : 
No of Unreferenced Bdds 37
4- No of Unreferenced Bdds 37
just added end of saver : 
No of Unreferenced Bdds 33

line5= 1 0 1 0 1 0 0 0 1 
----------------------------------
chandta= 41
status:sat
variable : L_1_1_1   value : 1
variable : L_1_1_2   value : 1
variable : L_1_1_3   value : 1
variable : L_2_1_2   value : 0
variable : L_2_1_3   value : 0
variable : L_2_1_4   value : 0
variable : V_1_2_1_1   value : 0
variable : V_1_2_1_2   value : 0
variable : V_1_2_1_3   value : 0
result= 1 1 1 0 0 0 0 0 0  
 inside saver 
 1- No of Unreferenced Bdds 33

 2- No of Unreferenced Bdds 33
3- No of Unreferenced Bdds 40
inja bayad sefr beshe : 
No of Unreferenced Bdds 39
4- No of Unreferenced Bdds 39
just added end of saver : 
No of Unreferenced Bdds 33

line5= 1 1 1 0 0 0 0 0 0 
----------------------------------
chandta= 42
status:sat
variable : L_1_1_1   value : 1
variable : L_1_1_2   value : 0
variable : L_1_1_3   value : 1
variable : L_2_1_2   value : 0
variable : L_2_1_3   value : 1
variable : L_2_1_4   value : 0
variable : V_1_2_1_1   value : 0
variable : V_1_2_1_2   value : 0
variable : V_1_2_1_3   value : 0
result= 1 0 1 0 1 0 0 0 0  
 inside saver 
 1- No of Unreferenced Bdds 33

 2- No of Unreferenced Bdds 33
3- No of Unreferenced Bdds 40
inja bayad sefr beshe : 
No of Unreferenced Bdds 39
4- No of Unreferenced Bdds 39
just added end of saver : 
No of Unreferenced Bdds 34

line5= 1 0 1 0 1 0 0 0 0 
----------------------------------
chandta= 43
status:sat
variable : L_1_1_1   value : 1
variable : L_1_1_2   value : 0
variable : L_1_1_3   value : 1
variable : L_2_1_2   value : 0
variable : L_2_1_3   value : 0
variable : L_2_1_4   value : 0
variable : V_1_2_1_1   value : 0
variable : V_1_2_1_2   value : 0
variable : V_1_2_1_3   value : 0
result= 1 0 1 0 0 0 0 0 0  
 inside saver 
 1- No of Unreferenced Bdds 34

 2- No of Unreferenced Bdds 34
3- No of Unreferenced Bdds 41
inja bayad sefr beshe : 
No of Unreferenced Bdds 40
4- No of Unreferenced Bdds 40
just added end of saver : 
No of Unreferenced Bdds 30

line5= 1 0 1 0 0 0 0 0 0 
----------------------------------
chandta= 44
status:sat
variable : L_1_1_1   value : 1
variable : L_1_1_2   value : 1
variable : L_1_1_3   value : 1
variable : L_2_1_2   value : 0
variable : L_2_1_3   value : 1
variable : L_2_1_4   value : 0
variable : V_1_2_1_1   value : 0
variable : V_1_2_1_2   value : 1
variable : V_1_2_1_3   value : 0
result= 1 1 1 0 1 0 0 1 0  
 inside saver 
 1- No of Unreferenced Bdds 30

 2- No of Unreferenced Bdds 30
3- No of Unreferenced Bdds 37
inja bayad sefr beshe : 
No of Unreferenced Bdds 38
4- No of Unreferenced Bdds 38
just added end of saver : 
No of Unreferenced Bdds 33

line5= 1 1 1 0 1 0 0 1 0 
----------------------------------
chandta= 45
status:sat
variable : L_1_1_1   value : 1
variable : L_1_1_2   value : 1
variable : L_1_1_3   value : 1
variable : L_2_1_2   value : 0
variable : L_2_1_3   value : 1
variable : L_2_1_4   value : 0
variable : V_1_2_1_1   value : 0
variable : V_1_2_1_2   value : 1
variable : V_1_2_1_3   value : 1
result= 1 1 1 0 1 0 0 1 1  
 inside saver 
 1- No of Unreferenced Bdds 33

 2- No of Unreferenced Bdds 33
3- No of Unreferenced Bdds 40
inja bayad sefr beshe : 
No of Unreferenced Bdds 41
4- No of Unreferenced Bdds 41
just added end of saver : 
No of Unreferenced Bdds 29

line5= 1 1 1 0 1 0 0 1 1 
----------------------------------
chandta= 46
status:sat
variable : L_1_1_1   value : 1
variable : L_1_1_2   value : 1
variable : L_1_1_3   value : 1
variable : L_2_1_2   value : 1
variable : L_2_1_3   value : 1
variable : L_2_1_4   value : 0
variable : V_1_2_1_1   value : 1
variable : V_1_2_1_2   value : 1
variable : V_1_2_1_3   value : 0
result= 1 1 1 1 1 0 1 1 0  
 inside saver 
 1- No of Unreferenced Bdds 29

 2- No of Unreferenced Bdds 29
3- No of Unreferenced Bdds 36
inja bayad sefr beshe : 
No of Unreferenced Bdds 37
4- No of Unreferenced Bdds 37
just added end of saver : 
No of Unreferenced Bdds 33

line5= 1 1 1 1 1 0 1 1 0 
----------------------------------
chandta= 47
status:sat
variable : L_1_1_1   value : 1
variable : L_1_1_2   value : 1
variable : L_1_1_3   value : 1
variable : L_2_1_2   value : 1
variable : L_2_1_3   value : 1
variable : L_2_1_4   value : 0
variable : V_1_2_1_1   value : 1
variable : V_1_2_1_2   value : 1
variable : V_1_2_1_3   value : 1
result= 1 1 1 1 1 0 1 1 1  
 inside saver 
 1- No of Unreferenced Bdds 33

 2- No of Unreferenced Bdds 33
3- No of Unreferenced Bdds 40
inja bayad sefr beshe : 
No of Unreferenced Bdds 41
4- No of Unreferenced Bdds 41
just added end of saver : 
No of Unreferenced Bdds 27

line5= 1 1 1 1 1 0 1 1 1 
----------------------------------
chandta= 48
status:sat
variable : L_1_1_1   value : 1
variable : L_1_1_2   value : 0
variable : L_1_1_3   value : 1
variable : L_2_1_2   value : 1
variable : L_2_1_3   value : 1
variable : L_2_1_4   value : 0
variable : V_1_2_1_1   value : 1
variable : V_1_2_1_2   value : 0
variable : V_1_2_1_3   value : 0
result= 1 0 1 1 1 0 1 0 0  
 inside saver 
 1- No of Unreferenced Bdds 27

 2- No of Unreferenced Bdds 27
3- No of Unreferenced Bdds 34
inja bayad sefr beshe : 
No of Unreferenced Bdds 34
4- No of Unreferenced Bdds 34
just added end of saver : 
No of Unreferenced Bdds 29

line5= 1 0 1 1 1 0 1 0 0 
----------------------------------
chandta= 49
status:sat
variable : L_1_1_1   value : 1
variable : L_1_1_2   value : 0
variable : L_1_1_3   value : 1
variable : L_2_1_2   value : 1
variable : L_2_1_3   value : 1
variable : L_2_1_4   value : 0
variable : V_1_2_1_1   value : 1
variable : V_1_2_1_2   value : 0
variable : V_1_2_1_3   value : 1
result= 1 0 1 1 1 0 1 0 1  
 inside saver 
 1- No of Unreferenced Bdds 29

 2- No of Unreferenced Bdds 29
3- No of Unreferenced Bdds 36
inja bayad sefr beshe : 
No of Unreferenced Bdds 37
4- No of Unreferenced Bdds 37
just added end of saver : 
No of Unreferenced Bdds 26

line5= 1 0 1 1 1 0 1 0 1 
----------------------------------
chandta= 50
status:sat
variable : L_1_1_1   value : 0
variable : L_1_1_2   value : 1
variable : L_1_1_3   value : 1
variable : L_2_1_2   value : 0
variable : L_2_1_3   value : 1
variable : L_2_1_4   value : 0
variable : V_1_2_1_1   value : 0
variable : V_1_2_1_2   value : 1
variable : V_1_2_1_3   value : 1
result= 0 1 1 0 1 0 0 1 1  
 inside saver 
 1- No of Unreferenced Bdds 26

 2- No of Unreferenced Bdds 26
3- No of Unreferenced Bdds 33
inja bayad sefr beshe : 
No of Unreferenced Bdds 34
4- No of Unreferenced Bdds 34
just added end of saver : 
No of Unreferenced Bdds 31

line5= 0 1 1 0 1 0 0 1 1 
----------------------------------
chandta= 51
status:sat
variable : L_1_1_1   value : 0
variable : L_1_1_2   value : 1
variable : L_1_1_3   value : 1
variable : L_2_1_2   value : 1
variable : L_2_1_3   value : 1
variable : L_2_1_4   value : 0
variable : V_1_2_1_1   value : 0
variable : V_1_2_1_2   value : 1
variable : V_1_2_1_3   value : 1
result= 0 1 1 1 1 0 0 1 1  
 inside saver 
 1- No of Unreferenced Bdds 31

 2- No of Unreferenced Bdds 31
3- No of Unreferenced Bdds 38
inja bayad sefr beshe : 
No of Unreferenced Bdds 35
4- No of Unreferenced Bdds 35
just added end of saver : 
No of Unreferenced Bdds 30

line5= 0 1 1 1 1 0 0 1 1 
----------------------------------
chandta= 52
status:sat
variable : L_1_1_1   value : 0
variable : L_1_1_2   value : 1
variable : L_1_1_3   value : 1
variable : L_2_1_2   value : 0
variable : L_2_1_3   value : 1
variable : L_2_1_4   value : 0
variable : V_1_2_1_1   value : 0
variable : V_1_2_1_2   value : 1
variable : V_1_2_1_3   value : 0
result= 0 1 1 0 1 0 0 1 0  
 inside saver 
 1- No of Unreferenced Bdds 30

 2- No of Unreferenced Bdds 30
3- No of Unreferenced Bdds 37
inja bayad sefr beshe : 
No of Unreferenced Bdds 38
4- No of Unreferenced Bdds 38
just added end of saver : 
No of Unreferenced Bdds 32

line5= 0 1 1 0 1 0 0 1 0 
----------------------------------
chandta= 53
status:sat
variable : L_1_1_1   value : 0
variable : L_1_1_2   value : 1
variable : L_1_1_3   value : 1
variable : L_2_1_2   value : 1
variable : L_2_1_3   value : 1
variable : L_2_1_4   value : 0
variable : V_1_2_1_1   value : 0
variable : V_1_2_1_2   value : 1
variable : V_1_2_1_3   value : 0
result= 0 1 1 1 1 0 0 1 0  
 inside saver 
 1- No of Unreferenced Bdds 32

 2- No of Unreferenced Bdds 32
3- No of Unreferenced Bdds 39
inja bayad sefr beshe : 
No of Unreferenced Bdds 40
4- No of Unreferenced Bdds 40
just added end of saver : 
No of Unreferenced Bdds 27

line5= 0 1 1 1 1 0 0 1 0 
----------------------------------
chandta= 54
status:sat
variable : L_1_1_1   value : 0
variable : L_1_1_2   value : 0
variable : L_1_1_3   value : 1
variable : L_2_1_2   value : 0
variable : L_2_1_3   value : 0
variable : L_2_1_4   value : 0
variable : V_1_2_1_1   value : 0
variable : V_1_2_1_2   value : 0
variable : V_1_2_1_3   value : 0
result= 0 0 1 0 0 0 0 0 0  
 inside saver 
 1- No of Unreferenced Bdds 27

 2- No of Unreferenced Bdds 27
3- No of Unreferenced Bdds 34
inja bayad sefr beshe : 
No of Unreferenced Bdds 33
4- No of Unreferenced Bdds 33
just added end of saver : 
No of Unreferenced Bdds 30

line5= 0 0 1 0 0 0 0 0 0 
----------------------------------
chandta= 55
status:sat
variable : L_1_1_1   value : 0
variable : L_1_1_2   value : 0
variable : L_1_1_3   value : 1
variable : L_2_1_2   value : 1
variable : L_2_1_3   value : 0
variable : L_2_1_4   value : 0
variable : V_1_2_1_1   value : 0
variable : V_1_2_1_2   value : 0
variable : V_1_2_1_3   value : 0
result= 0 0 1 1 0 0 0 0 0  
 inside saver 
 1- No of Unreferenced Bdds 30

 2- No of Unreferenced Bdds 30
3- No of Unreferenced Bdds 37
inja bayad sefr beshe : 
No of Unreferenced Bdds 34
4- No of Unreferenced Bdds 34
just added end of saver : 
No of Unreferenced Bdds 29

line5= 0 0 1 1 0 0 0 0 0 
----------------------------------
chandta= 56
status:sat
variable : L_1_1_1   value : 0
variable : L_1_1_2   value : 1
variable : L_1_1_3   value : 1
variable : L_2_1_2   value : 0
variable : L_2_1_3   value : 0
variable : L_2_1_4   value : 0
variable : V_1_2_1_1   value : 0
variable : V_1_2_1_2   value : 0
variable : V_1_2_1_3   value : 0
result= 0 1 1 0 0 0 0 0 0  
 inside saver 
 1- No of Unreferenced Bdds 29

 2- No of Unreferenced Bdds 29
3- No of Unreferenced Bdds 36
inja bayad sefr beshe : 
No of Unreferenced Bdds 33
4- No of Unreferenced Bdds 33
just added end of saver : 
No of Unreferenced Bdds 31

line5= 0 1 1 0 0 0 0 0 0 
----------------------------------
chandta= 57
status:sat
variable : L_1_1_1   value : 0
variable : L_1_1_2   value : 1
variable : L_1_1_3   value : 1
variable : L_2_1_2   value : 1
variable : L_2_1_3   value : 0
variable : L_2_1_4   value : 0
variable : V_1_2_1_1   value : 0
variable : V_1_2_1_2   value : 0
variable : V_1_2_1_3   value : 0
result= 0 1 1 1 0 0 0 0 0  
 inside saver 
 1- No of Unreferenced Bdds 31

 2- No of Unreferenced Bdds 31
3- No of Unreferenced Bdds 38
inja bayad sefr beshe : 
No of Unreferenced Bdds 35
4- No of Unreferenced Bdds 35
just added end of saver : 
No of Unreferenced Bdds 29

line5= 0 1 1 1 0 0 0 0 0 
----------------------------------
chandta= 58
status:sat
variable : L_1_1_1   value : 0
variable : L_1_1_2   value : 1
variable : L_1_1_3   value : 1
variable : L_2_1_2   value : 0
variable : L_2_1_3   value : 0
variable : L_2_1_4   value : 0
variable : V_1_2_1_1   value : 0
variable : V_1_2_1_2   value : 0
variable : V_1_2_1_3   value : 1
result= 0 1 1 0 0 0 0 0 1  
 inside saver 
 1- No of Unreferenced Bdds 29

 2- No of Unreferenced Bdds 29
3- No of Unreferenced Bdds 36
inja bayad sefr beshe : 
No of Unreferenced Bdds 37
4- No of Unreferenced Bdds 37
just added end of saver : 
No of Unreferenced Bdds 30

line5= 0 1 1 0 0 0 0 0 1 
----------------------------------
chandta= 59
status:sat
variable : L_1_1_1   value : 0
variable : L_1_1_2   value : 0
variable : L_1_1_3   value : 1
variable : L_2_1_2   value : 0
variable : L_2_1_3   value : 0
variable : L_2_1_4   value : 0
variable : V_1_2_1_1   value : 0
variable : V_1_2_1_2   value : 0
variable : V_1_2_1_3   value : 1
result= 0 0 1 0 0 0 0 0 1  
 inside saver 
 1- No of Unreferenced Bdds 30

 2- No of Unreferenced Bdds 30
3- No of Unreferenced Bdds 37
inja bayad sefr beshe : 
No of Unreferenced Bdds 38
4- No of Unreferenced Bdds 38
just added end of saver : 
No of Unreferenced Bdds 32

line5= 0 0 1 0 0 0 0 0 1 
----------------------------------
chandta= 60
status:sat
variable : L_1_1_1   value : 0
variable : L_1_1_2   value : 1
variable : L_1_1_3   value : 1
variable : L_2_1_2   value : 1
variable : L_2_1_3   value : 0
variable : L_2_1_4   value : 0
variable : V_1_2_1_1   value : 0
variable : V_1_2_1_2   value : 0
variable : V_1_2_1_3   value : 1
result= 0 1 1 1 0 0 0 0 1  
 inside saver 
 1- No of Unreferenced Bdds 32

 2- No of Unreferenced Bdds 32
3- No of Unreferenced Bdds 39
inja bayad sefr beshe : 
No of Unreferenced Bdds 40
4- No of Unreferenced Bdds 40
just added end of saver : 
No of Unreferenced Bdds 29

line5= 0 1 1 1 0 0 0 0 1 
----------------------------------
chandta= 61
status:sat
variable : L_1_1_1   value : 0
variable : L_1_1_2   value : 0
variable : L_1_1_3   value : 1
variable : L_2_1_2   value : 1
variable : L_2_1_3   value : 0
variable : L_2_1_4   value : 0
variable : V_1_2_1_1   value : 0
variable : V_1_2_1_2   value : 0
variable : V_1_2_1_3   value : 1
result= 0 0 1 1 0 0 0 0 1  
 inside saver 
 1- No of Unreferenced Bdds 29

 2- No of Unreferenced Bdds 29
3- No of Unreferenced Bdds 36
inja bayad sefr beshe : 
No of Unreferenced Bdds 37
4- No of Unreferenced Bdds 37
just added end of saver : 
No of Unreferenced Bdds 26

line5= 0 0 1 1 0 0 0 0 1 
----------------------------------
chandta= 62
status:sat
variable : L_1_1_1   value : 0
variable : L_1_1_2   value : 0
variable : L_1_1_3   value : 1
variable : L_2_1_2   value : 1
variable : L_2_1_3   value : 1
variable : L_2_1_4   value : 0
variable : V_1_2_1_1   value : 0
variable : V_1_2_1_2   value : 0
variable : V_1_2_1_3   value : 1
result= 0 0 1 1 1 0 0 0 1  
 inside saver 
 1- No of Unreferenced Bdds 26

 2- No of Unreferenced Bdds 26
3- No of Unreferenced Bdds 33
inja bayad sefr beshe : 
No of Unreferenced Bdds 34
4- No of Unreferenced Bdds 34
just added end of saver : 
No of Unreferenced Bdds 31

line5= 0 0 1 1 1 0 0 0 1 
----------------------------------
chandta= 63
status:sat
variable : L_1_1_1   value : 0
variable : L_1_1_2   value : 0
variable : L_1_1_3   value : 1
variable : L_2_1_2   value : 0
variable : L_2_1_3   value : 1
variable : L_2_1_4   value : 0
variable : V_1_2_1_1   value : 0
variable : V_1_2_1_2   value : 0
variable : V_1_2_1_3   value : 1
result= 0 0 1 0 1 0 0 0 1  
 inside saver 
 1- No of Unreferenced Bdds 31

 2- No of Unreferenced Bdds 31
3- No of Unreferenced Bdds 38
inja bayad sefr beshe : 
No of Unreferenced Bdds 36
4- No of Unreferenced Bdds 36
just added end of saver : 
No of Unreferenced Bdds 29

line5= 0 0 1 0 1 0 0 0 1 
----------------------------------
chandta= 64
status:sat
variable : L_1_1_1   value : 0
variable : L_1_1_2   value : 0
variable : L_1_1_3   value : 1
variable : L_2_1_2   value : 1
variable : L_2_1_3   value : 1
variable : L_2_1_4   value : 0
variable : V_1_2_1_1   value : 0
variable : V_1_2_1_2   value : 0
variable : V_1_2_1_3   value : 0
result= 0 0 1 1 1 0 0 0 0  
 inside saver 
 1- No of Unreferenced Bdds 29

 2- No of Unreferenced Bdds 29
3- No of Unreferenced Bdds 36
inja bayad sefr beshe : 
No of Unreferenced Bdds 35
4- No of Unreferenced Bdds 35
just added end of saver : 
No of Unreferenced Bdds 30

line5= 0 0 1 1 1 0 0 0 0 
----------------------------------
chandta= 65
status:sat
variable : L_1_1_1   value : 0
variable : L_1_1_2   value : 0
variable : L_1_1_3   value : 1
variable : L_2_1_2   value : 0
variable : L_2_1_3   value : 1
variable : L_2_1_4   value : 0
variable : V_1_2_1_1   value : 0
variable : V_1_2_1_2   value : 0
variable : V_1_2_1_3   value : 0
result= 0 0 1 0 1 0 0 0 0  
 inside saver 
 1- No of Unreferenced Bdds 30

 2- No of Unreferenced Bdds 30
3- No of Unreferenced Bdds 37
inja bayad sefr beshe : 
No of Unreferenced Bdds 36
4- No of Unreferenced Bdds 36
just added end of saver : 
No of Unreferenced Bdds 24

line5= 0 0 1 0 1 0 0 0 0 
----------------------------------
chandta= 66
status:sat
variable : L_1_1_1   value : 1
variable : L_1_1_2   value : 1
variable : L_1_1_3   value : 0
variable : L_2_1_2   value : 1
variable : L_2_1_3   value : 1
variable : L_2_1_4   value : 1
variable : V_1_2_1_1   value : 1
variable : V_1_2_1_2   value : 1
variable : V_1_2_1_3   value : 0
result= 1 1 0 1 1 1 1 1 0  
 inside saver 
 1- No of Unreferenced Bdds 24

 2- No of Unreferenced Bdds 24
3- No of Unreferenced Bdds 31
inja bayad sefr beshe : 
No of Unreferenced Bdds 32
4- No of Unreferenced Bdds 32
just added end of saver : 
No of Unreferenced Bdds 30

line5= 1 1 0 1 1 1 1 1 0 
----------------------------------
chandta= 67
status:sat
variable : L_1_1_1   value : 1
variable : L_1_1_2   value : 1
variable : L_1_1_3   value : 0
variable : L_2_1_2   value : 1
variable : L_2_1_3   value : 1
variable : L_2_1_4   value : 1
variable : V_1_2_1_1   value : 1
variable : V_1_2_1_2   value : 1
variable : V_1_2_1_3   value : 1
result= 1 1 0 1 1 1 1 1 1  
 inside saver 
 1- No of Unreferenced Bdds 30

 2- No of Unreferenced Bdds 30
3- No of Unreferenced Bdds 37
inja bayad sefr beshe : 
No of Unreferenced Bdds 38
4- No of Unreferenced Bdds 38
just added end of saver : 
No of Unreferenced Bdds 27

line5= 1 1 0 1 1 1 1 1 1 
----------------------------------
chandta= 68
status:sat
variable : L_1_1_1   value : 1
variable : L_1_1_2   value : 1
variable : L_1_1_3   value : 1
variable : L_2_1_2   value : 1
variable : L_2_1_3   value : 1
variable : L_2_1_4   value : 1
variable : V_1_2_1_1   value : 1
variable : V_1_2_1_2   value : 1
variable : V_1_2_1_3   value : 1
result= 1 1 1 1 1 1 1 1 1  
 inside saver 
 1- No of Unreferenced Bdds 27

 2- No of Unreferenced Bdds 27
3- No of Unreferenced Bdds 34
inja bayad sefr beshe : 
No of Unreferenced Bdds 35
4- No of Unreferenced Bdds 35
just added end of saver : 
No of Unreferenced Bdds 29

line5= 1 1 1 1 1 1 1 1 1 
----------------------------------
chandta= 69
status:sat
variable : L_1_1_1   value : 0
variable : L_1_1_2   value : 1
variable : L_1_1_3   value : 0
variable : L_2_1_2   value : 0
variable : L_2_1_3   value : 1
variable : L_2_1_4   value : 1
variable : V_1_2_1_1   value : 0
variable : V_1_2_1_2   value : 1
variable : V_1_2_1_3   value : 1
result= 0 1 0 0 1 1 0 1 1  
 inside saver 
 1- No of Unreferenced Bdds 29

 2- No of Unreferenced Bdds 29
3- No of Unreferenced Bdds 36
inja bayad sefr beshe : 
No of Unreferenced Bdds 36
4- No of Unreferenced Bdds 36
just added end of saver : 
No of Unreferenced Bdds 34

line5= 0 1 0 0 1 1 0 1 1 
----------------------------------
chandta= 70
status:sat
variable : L_1_1_1   value : 1
variable : L_1_1_2   value : 1
variable : L_1_1_3   value : 0
variable : L_2_1_2   value : 0
variable : L_2_1_3   value : 1
variable : L_2_1_4   value : 1
variable : V_1_2_1_1   value : 0
variable : V_1_2_1_2   value : 1
variable : V_1_2_1_3   value : 1
result= 1 1 0 0 1 1 0 1 1  
 inside saver 
 1- No of Unreferenced Bdds 34

 2- No of Unreferenced Bdds 34
3- No of Unreferenced Bdds 41
inja bayad sefr beshe : 
No of Unreferenced Bdds 40
4- No of Unreferenced Bdds 40
just added end of saver : 
No of Unreferenced Bdds 34

line5= 1 1 0 0 1 1 0 1 1 
----------------------------------
chandta= 71
status:sat
variable : L_1_1_1   value : 0
variable : L_1_1_2   value : 1
variable : L_1_1_3   value : 1
variable : L_2_1_2   value : 0
variable : L_2_1_3   value : 1
variable : L_2_1_4   value : 1
variable : V_1_2_1_1   value : 0
variable : V_1_2_1_2   value : 1
variable : V_1_2_1_3   value : 1
result= 0 1 1 0 1 1 0 1 1  
 inside saver 
 1- No of Unreferenced Bdds 34

 2- No of Unreferenced Bdds 34
3- No of Unreferenced Bdds 41
inja bayad sefr beshe : 
No of Unreferenced Bdds 40
4- No of Unreferenced Bdds 40
just added end of saver : 
No of Unreferenced Bdds 33

line5= 0 1 1 0 1 1 0 1 1 
----------------------------------
chandta= 72
status:sat
variable : L_1_1_1   value : 1
variable : L_1_1_2   value : 1
variable : L_1_1_3   value : 1
variable : L_2_1_2   value : 0
variable : L_2_1_3   value : 1
variable : L_2_1_4   value : 1
variable : V_1_2_1_1   value : 0
variable : V_1_2_1_2   value : 1
variable : V_1_2_1_3   value : 1
result= 1 1 1 0 1 1 0 1 1  
 inside saver 
 1- No of Unreferenced Bdds 33

 2- No of Unreferenced Bdds 33
3- No of Unreferenced Bdds 40
inja bayad sefr beshe : 
No of Unreferenced Bdds 39
4- No of Unreferenced Bdds 39
just added end of saver : 
No of Unreferenced Bdds 33

line5= 1 1 1 0 1 1 0 1 1 
----------------------------------
chandta= 73
status:sat
variable : L_1_1_1   value : 0
variable : L_1_1_2   value : 1
variable : L_1_1_3   value : 0
variable : L_2_1_2   value : 1
variable : L_2_1_3   value : 1
variable : L_2_1_4   value : 1
variable : V_1_2_1_1   value : 0
variable : V_1_2_1_2   value : 1
variable : V_1_2_1_3   value : 1
result= 0 1 0 1 1 1 0 1 1  
 inside saver 
 1- No of Unreferenced Bdds 33

 2- No of Unreferenced Bdds 33
3- No of Unreferenced Bdds 40
inja bayad sefr beshe : 
No of Unreferenced Bdds 39
4- No of Unreferenced Bdds 39
just added end of saver : 
No of Unreferenced Bdds 34

line5= 0 1 0 1 1 1 0 1 1 
----------------------------------
chandta= 74
status:sat
variable : L_1_1_1   value : 0
variable : L_1_1_2   value : 1
variable : L_1_1_3   value : 1
variable : L_2_1_2   value : 1
variable : L_2_1_3   value : 1
variable : L_2_1_4   value : 1
variable : V_1_2_1_1   value : 0
variable : V_1_2_1_2   value : 1
variable : V_1_2_1_3   value : 1
result= 0 1 1 1 1 1 0 1 1  
 inside saver 
 1- No of Unreferenced Bdds 34

 2- No of Unreferenced Bdds 34
3- No of Unreferenced Bdds 41
inja bayad sefr beshe : 
No of Unreferenced Bdds 40
4- No of Unreferenced Bdds 40
just added end of saver : 
No of Unreferenced Bdds 30

line5= 0 1 1 1 1 1 0 1 1 
----------------------------------
chandta= 75
status:sat
variable : L_1_1_1   value : 0
variable : L_1_1_2   value : 0
variable : L_1_1_3   value : 0
variable : L_2_1_2   value : 1
variable : L_2_1_3   value : 1
variable : L_2_1_4   value : 1
variable : V_1_2_1_1   value : 0
variable : V_1_2_1_2   value : 0
variable : V_1_2_1_3   value : 1
result= 0 0 0 1 1 1 0 0 1  
 inside saver 
 1- No of Unreferenced Bdds 30

 2- No of Unreferenced Bdds 30
3- No of Unreferenced Bdds 37
inja bayad sefr beshe : 
No of Unreferenced Bdds 38
4- No of Unreferenced Bdds 38
just added end of saver : 
No of Unreferenced Bdds 36

line5= 0 0 0 1 1 1 0 0 1 
----------------------------------
chandta= 76
status:sat
variable : L_1_1_1   value : 0
variable : L_1_1_2   value : 0
variable : L_1_1_3   value : 0
variable : L_2_1_2   value : 0
variable : L_2_1_3   value : 1
variable : L_2_1_4   value : 1
variable : V_1_2_1_1   value : 0
variable : V_1_2_1_2   value : 0
variable : V_1_2_1_3   value : 1
result= 0 0 0 0 1 1 0 0 1  
 inside saver 
 1- No of Unreferenced Bdds 36

 2- No of Unreferenced Bdds 36
3- No of Unreferenced Bdds 43
inja bayad sefr beshe : 
No of Unreferenced Bdds 42
4- No of Unreferenced Bdds 42
just added end of saver : 
No of Unreferenced Bdds 35

line5= 0 0 0 0 1 1 0 0 1 
----------------------------------
chandta= 77
status:sat
variable : L_1_1_1   value : 1
variable : L_1_1_2   value : 0
variable : L_1_1_3   value : 0
variable : L_2_1_2   value : 0
variable : L_2_1_3   value : 1
variable : L_2_1_4   value : 1
variable : V_1_2_1_1   value : 0
variable : V_1_2_1_2   value : 0
variable : V_1_2_1_3   value : 1
result= 1 0 0 0 1 1 0 0 1  
 inside saver 
 1- No of Unreferenced Bdds 35

 2- No of Unreferenced Bdds 35
3- No of Unreferenced Bdds 42
inja bayad sefr beshe : 
No of Unreferenced Bdds 41
4- No of Unreferenced Bdds 41
just added end of saver : 
No of Unreferenced Bdds 32

line5= 1 0 0 0 1 1 0 0 1 
----------------------------------
chandta= 78
status:sat
variable : L_1_1_1   value : 0
variable : L_1_1_2   value : 0
variable : L_1_1_3   value : 1
variable : L_2_1_2   value : 0
variable : L_2_1_3   value : 1
variable : L_2_1_4   value : 1
variable : V_1_2_1_1   value : 0
variable : V_1_2_1_2   value : 0
variable : V_1_2_1_3   value : 1
result= 0 0 1 0 1 1 0 0 1  
 inside saver 
 1- No of Unreferenced Bdds 32

 2- No of Unreferenced Bdds 32
3- No of Unreferenced Bdds 39
inja bayad sefr beshe : 
No of Unreferenced Bdds 38
4- No of Unreferenced Bdds 38
just added end of saver : 
No of Unreferenced Bdds 33

line5= 0 0 1 0 1 1 0 0 1 
----------------------------------
chandta= 79
status:sat
variable : L_1_1_1   value : 0
variable : L_1_1_2   value : 0
variable : L_1_1_3   value : 1
variable : L_2_1_2   value : 1
variable : L_2_1_3   value : 1
variable : L_2_1_4   value : 1
variable : V_1_2_1_1   value : 0
variable : V_1_2_1_2   value : 0
variable : V_1_2_1_3   value : 1
result= 0 0 1 1 1 1 0 0 1  
 inside saver 
 1- No of Unreferenced Bdds 33

 2- No of Unreferenced Bdds 33
3- No of Unreferenced Bdds 40
inja bayad sefr beshe : 
No of Unreferenced Bdds 39
4- No of Unreferenced Bdds 39
just added end of saver : 
No of Unreferenced Bdds 31

line5= 0 0 1 1 1 1 0 0 1 
----------------------------------
chandta= 80
status:sat
variable : L_1_1_1   value : 1
variable : L_1_1_2   value : 0
variable : L_1_1_3   value : 1
variable : L_2_1_2   value : 0
variable : L_2_1_3   value : 1
variable : L_2_1_4   value : 1
variable : V_1_2_1_1   value : 0
variable : V_1_2_1_2   value : 0
variable : V_1_2_1_3   value : 1
result= 1 0 1 0 1 1 0 0 1  
 inside saver 
 1- No of Unreferenced Bdds 31

 2- No of Unreferenced Bdds 31
3- No of Unreferenced Bdds 38
inja bayad sefr beshe : 
No of Unreferenced Bdds 37
4- No of Unreferenced Bdds 37
just added end of saver : 
No of Unreferenced Bdds 31

line5= 1 0 1 0 1 1 0 0 1 
----------------------------------
chandta= 81
status:sat
variable : L_1_1_1   value : 1
variable : L_1_1_2   value : 1
variable : L_1_1_3   value : 0
variable : L_2_1_2   value : 0
variable : L_2_1_3   value : 0
variable : L_2_1_4   value : 1
variable : V_1_2_1_1   value : 0
variable : V_1_2_1_2   value : 0
variable : V_1_2_1_3   value : 1
result= 1 1 0 0 0 1 0 0 1  
 inside saver 
 1- No of Unreferenced Bdds 31

 2- No of Unreferenced Bdds 31
3- No of Unreferenced Bdds 38
inja bayad sefr beshe : 
No of Unreferenced Bdds 37
4- No of Unreferenced Bdds 37
just added end of saver : 
No of Unreferenced Bdds 32

line5= 1 1 0 0 0 1 0 0 1 
----------------------------------
chandta= 82
status:sat
variable : L_1_1_1   value : 1
variable : L_1_1_2   value : 0
variable : L_1_1_3   value : 0
variable : L_2_1_2   value : 0
variable : L_2_1_3   value : 0
variable : L_2_1_4   value : 1
variable : V_1_2_1_1   value : 0
variable : V_1_2_1_2   value : 0
variable : V_1_2_1_3   value : 1
result= 1 0 0 0 0 1 0 0 1  
 inside saver 
 1- No of Unreferenced Bdds 32

 2- No of Unreferenced Bdds 32
3- No of Unreferenced Bdds 39
inja bayad sefr beshe : 
No of Unreferenced Bdds 38
4- No of Unreferenced Bdds 38
just added end of saver : 
No of Unreferenced Bdds 32

line5= 1 0 0 0 0 1 0 0 1 
----------------------------------
chandta= 83
status:sat
variable : L_1_1_1   value : 1
variable : L_1_1_2   value : 1
variable : L_1_1_3   value : 1
variable : L_2_1_2   value : 0
variable : L_2_1_3   value : 0
variable : L_2_1_4   value : 1
variable : V_1_2_1_1   value : 0
variable : V_1_2_1_2   value : 0
variable : V_1_2_1_3   value : 1
result= 1 1 1 0 0 1 0 0 1  
 inside saver 
 1- No of Unreferenced Bdds 32

 2- No of Unreferenced Bdds 32
3- No of Unreferenced Bdds 39
inja bayad sefr beshe : 
No of Unreferenced Bdds 38
4- No of Unreferenced Bdds 38
just added end of saver : 
No of Unreferenced Bdds 32

line5= 1 1 1 0 0 1 0 0 1 
----------------------------------
chandta= 84
status:sat
variable : L_1_1_1   value : 1
variable : L_1_1_2   value : 0
variable : L_1_1_3   value : 1
variable : L_2_1_2   value : 0
variable : L_2_1_3   value : 0
variable : L_2_1_4   value : 1
variable : V_1_2_1_1   value : 0
variable : V_1_2_1_2   value : 0
variable : V_1_2_1_3   value : 1
result= 1 0 1 0 0 1 0 0 1  
 inside saver 
 1- No of Unreferenced Bdds 32

 2- No of Unreferenced Bdds 32
3- No of Unreferenced Bdds 39
inja bayad sefr beshe : 
No of Unreferenced Bdds 38
4- No of Unreferenced Bdds 38
just added end of saver : 
No of Unreferenced Bdds 32

line5= 1 0 1 0 0 1 0 0 1 
----------------------------------
chandta= 85
status:sat
variable : L_1_1_1   value : 0
variable : L_1_1_2   value : 1
variable : L_1_1_3   value : 1
variable : L_2_1_2   value : 0
variable : L_2_1_3   value : 0
variable : L_2_1_4   value : 1
variable : V_1_2_1_1   value : 0
variable : V_1_2_1_2   value : 0
variable : V_1_2_1_3   value : 1
result= 0 1 1 0 0 1 0 0 1  
 inside saver 
 1- No of Unreferenced Bdds 32

 2- No of Unreferenced Bdds 32
3- No of Unreferenced Bdds 39
inja bayad sefr beshe : 
No of Unreferenced Bdds 38
4- No of Unreferenced Bdds 38
just added end of saver : 
No of Unreferenced Bdds 34

line5= 0 1 1 0 0 1 0 0 1 
----------------------------------
chandta= 86
status:sat
variable : L_1_1_1   value : 0
variable : L_1_1_2   value : 1
variable : L_1_1_3   value : 0
variable : L_2_1_2   value : 0
variable : L_2_1_3   value : 0
variable : L_2_1_4   value : 1
variable : V_1_2_1_1   value : 0
variable : V_1_2_1_2   value : 0
variable : V_1_2_1_3   value : 1
result= 0 1 0 0 0 1 0 0 1  
 inside saver 
 1- No of Unreferenced Bdds 34

 2- No of Unreferenced Bdds 34
3- No of Unreferenced Bdds 41
inja bayad sefr beshe : 
No of Unreferenced Bdds 40
4- No of Unreferenced Bdds 40
just added end of saver : 
No of Unreferenced Bdds 33

line5= 0 1 0 0 0 1 0 0 1 
----------------------------------
chandta= 87
status:sat
variable : L_1_1_1   value : 0
variable : L_1_1_2   value : 0
variable : L_1_1_3   value : 1
variable : L_2_1_2   value : 0
variable : L_2_1_3   value : 0
variable : L_2_1_4   value : 1
variable : V_1_2_1_1   value : 0
variable : V_1_2_1_2   value : 0
variable : V_1_2_1_3   value : 1
result= 0 0 1 0 0 1 0 0 1  
 inside saver 
 1- No of Unreferenced Bdds 33

 2- No of Unreferenced Bdds 33
3- No of Unreferenced Bdds 40
inja bayad sefr beshe : 
No of Unreferenced Bdds 39
4- No of Unreferenced Bdds 39
just added end of saver : 
No of Unreferenced Bdds 35

line5= 0 0 1 0 0 1 0 0 1 
----------------------------------
chandta= 88
status:sat
variable : L_1_1_1   value : 0
variable : L_1_1_2   value : 0
variable : L_1_1_3   value : 0
variable : L_2_1_2   value : 0
variable : L_2_1_3   value : 0
variable : L_2_1_4   value : 1
variable : V_1_2_1_1   value : 0
variable : V_1_2_1_2   value : 0
variable : V_1_2_1_3   value : 1
result= 0 0 0 0 0 1 0 0 1  
 inside saver 
 1- No of Unreferenced Bdds 35

 2- No of Unreferenced Bdds 35
3- No of Unreferenced Bdds 42
inja bayad sefr beshe : 
No of Unreferenced Bdds 41
4- No of Unreferenced Bdds 41
just added end of saver : 
No of Unreferenced Bdds 34

line5= 0 0 0 0 0 1 0 0 1 
----------------------------------
chandta= 89
status:sat
variable : L_1_1_1   value : 0
variable : L_1_1_2   value : 1
variable : L_1_1_3   value : 1
variable : L_2_1_2   value : 1
variable : L_2_1_3   value : 0
variable : L_2_1_4   value : 1
variable : V_1_2_1_1   value : 0
variable : V_1_2_1_2   value : 0
variable : V_1_2_1_3   value : 1
result= 0 1 1 1 0 1 0 0 1  
 inside saver 
 1- No of Unreferenced Bdds 34

 2- No of Unreferenced Bdds 34
3- No of Unreferenced Bdds 41
inja bayad sefr beshe : 
No of Unreferenced Bdds 40
4- No of Unreferenced Bdds 40
just added end of saver : 
No of Unreferenced Bdds 35

line5= 0 1 1 1 0 1 0 0 1 
----------------------------------
chandta= 90
status:sat
variable : L_1_1_1   value : 0
variable : L_1_1_2   value : 0
variable : L_1_1_3   value : 1
variable : L_2_1_2   value : 1
variable : L_2_1_3   value : 0
variable : L_2_1_4   value : 1
variable : V_1_2_1_1   value : 0
variable : V_1_2_1_2   value : 0
variable : V_1_2_1_3   value : 1
result= 0 0 1 1 0 1 0 0 1  
 inside saver 
 1- No of Unreferenced Bdds 35

 2- No of Unreferenced Bdds 35
3- No of Unreferenced Bdds 42
inja bayad sefr beshe : 
No of Unreferenced Bdds 41
4- No of Unreferenced Bdds 41
just added end of saver : 
No of Unreferenced Bdds 36

line5= 0 0 1 1 0 1 0 0 1 
----------------------------------
chandta= 91
status:sat
variable : L_1_1_1   value : 0
variable : L_1_1_2   value : 1
variable : L_1_1_3   value : 0
variable : L_2_1_2   value : 1
variable : L_2_1_3   value : 0
variable : L_2_1_4   value : 1
variable : V_1_2_1_1   value : 0
variable : V_1_2_1_2   value : 0
variable : V_1_2_1_3   value : 1
result= 0 1 0 1 0 1 0 0 1  
 inside saver 
 1- No of Unreferenced Bdds 36

 2- No of Unreferenced Bdds 36
3- No of Unreferenced Bdds 43
inja bayad sefr beshe : 
No of Unreferenced Bdds 42
4- No of Unreferenced Bdds 42
just added end of saver : 
No of Unreferenced Bdds 33

line5= 0 1 0 1 0 1 0 0 1 
----------------------------------
chandta= 92
status:sat
variable : L_1_1_1   value : 0
variable : L_1_1_2   value : 0
variable : L_1_1_3   value : 0
variable : L_2_1_2   value : 1
variable : L_2_1_3   value : 0
variable : L_2_1_4   value : 1
variable : V_1_2_1_1   value : 0
variable : V_1_2_1_2   value : 0
variable : V_1_2_1_3   value : 1
result= 0 0 0 1 0 1 0 0 1  
 inside saver 
 1- No of Unreferenced Bdds 33

 2- No of Unreferenced Bdds 33
3- No of Unreferenced Bdds 40
inja bayad sefr beshe : 
No of Unreferenced Bdds 39
4- No of Unreferenced Bdds 39
just added end of saver : 
No of Unreferenced Bdds 29

line5= 0 0 0 1 0 1 0 0 1 
----------------------------------
chandta= 93
status:sat
variable : L_1_1_1   value : 0
variable : L_1_1_2   value : 1
variable : L_1_1_3   value : 0
variable : L_2_1_2   value : 1
variable : L_2_1_3   value : 1
variable : L_2_1_4   value : 1
variable : V_1_2_1_1   value : 0
variable : V_1_2_1_2   value : 1
variable : V_1_2_1_3   value : 0
result= 0 1 0 1 1 1 0 1 0  
 inside saver 
 1- No of Unreferenced Bdds 29

 2- No of Unreferenced Bdds 29
3- No of Unreferenced Bdds 36
inja bayad sefr beshe : 
No of Unreferenced Bdds 37
4- No of Unreferenced Bdds 37
just added end of saver : 
No of Unreferenced Bdds 32

line5= 0 1 0 1 1 1 0 1 0 
----------------------------------
chandta= 94
status:sat
variable : L_1_1_1   value : 1
variable : L_1_1_2   value : 1
variable : L_1_1_3   value : 0
variable : L_2_1_2   value : 0
variable : L_2_1_3   value : 1
variable : L_2_1_4   value : 1
variable : V_1_2_1_1   value : 0
variable : V_1_2_1_2   value : 1
variable : V_1_2_1_3   value : 0
result= 1 1 0 0 1 1 0 1 0  
 inside saver 
 1- No of Unreferenced Bdds 32

 2- No of Unreferenced Bdds 32
3- No of Unreferenced Bdds 39
inja bayad sefr beshe : 
No of Unreferenced Bdds 40
4- No of Unreferenced Bdds 40
just added end of saver : 
No of Unreferenced Bdds 32

line5= 1 1 0 0 1 1 0 1 0 
----------------------------------
chandta= 95
status:sat
variable : L_1_1_1   value : 0
variable : L_1_1_2   value : 1
variable : L_1_1_3   value : 0
variable : L_2_1_2   value : 0
variable : L_2_1_3   value : 1
variable : L_2_1_4   value : 1
variable : V_1_2_1_1   value : 0
variable : V_1_2_1_2   value : 1
variable : V_1_2_1_3   value : 0
result= 0 1 0 0 1 1 0 1 0  
 inside saver 
 1- No of Unreferenced Bdds 32

 2- No of Unreferenced Bdds 32
3- No of Unreferenced Bdds 39
inja bayad sefr beshe : 
No of Unreferenced Bdds 40
4- No of Unreferenced Bdds 40
just added end of saver : 
No of Unreferenced Bdds 31

line5= 0 1 0 0 1 1 0 1 0 
----------------------------------
chandta= 96
status:sat
variable : L_1_1_1   value : 0
variable : L_1_1_2   value : 0
variable : L_1_1_3   value : 0
variable : L_2_1_2   value : 1
variable : L_2_1_3   value : 0
variable : L_2_1_4   value : 1
variable : V_1_2_1_1   value : 0
variable : V_1_2_1_2   value : 0
variable : V_1_2_1_3   value : 0
result= 0 0 0 1 0 1 0 0 0  
 inside saver 
 1- No of Unreferenced Bdds 31

 2- No of Unreferenced Bdds 31
3- No of Unreferenced Bdds 38
inja bayad sefr beshe : 
No of Unreferenced Bdds 39
4- No of Unreferenced Bdds 39
just added end of saver : 
No of Unreferenced Bdds 34

line5= 0 0 0 1 0 1 0 0 0 
----------------------------------
chandta= 97
status:sat
variable : L_1_1_1   value : 0
variable : L_1_1_2   value : 0
variable : L_1_1_3   value : 0
variable : L_2_1_2   value : 1
variable : L_2_1_3   value : 1
variable : L_2_1_4   value : 1
variable : V_1_2_1_1   value : 0
variable : V_1_2_1_2   value : 0
variable : V_1_2_1_3   value : 0
result= 0 0 0 1 1 1 0 0 0  
 inside saver 
 1- No of Unreferenced Bdds 34

 2- No of Unreferenced Bdds 34
3- No of Unreferenced Bdds 41
inja bayad sefr beshe : 
No of Unreferenced Bdds 42
4- No of Unreferenced Bdds 42
just added end of saver : 
No of Unreferenced Bdds 33

line5= 0 0 0 1 1 1 0 0 0 
----------------------------------
chandta= 98
status:sat
variable : L_1_1_1   value : 0
variable : L_1_1_2   value : 1
variable : L_1_1_3   value : 0
variable : L_2_1_2   value : 1
variable : L_2_1_3   value : 0
variable : L_2_1_4   value : 1
variable : V_1_2_1_1   value : 0
variable : V_1_2_1_2   value : 0
variable : V_1_2_1_3   value : 0
result= 0 1 0 1 0 1 0 0 0  
 inside saver 
 1- No of Unreferenced Bdds 33

 2- No of Unreferenced Bdds 33
3- No of Unreferenced Bdds 40
inja bayad sefr beshe : 
No of Unreferenced Bdds 41
4- No of Unreferenced Bdds 41
just added end of saver : 
No of Unreferenced Bdds 35

line5= 0 1 0 1 0 1 0 0 0 
----------------------------------
chandta= 99
status:sat
variable : L_1_1_1   value : 0
variable : L_1_1_2   value : 0
variable : L_1_1_3   value : 0
variable : L_2_1_2   value : 0
variable : L_2_1_3   value : 0
variable : L_2_1_4   value : 1
variable : V_1_2_1_1   value : 0
variable : V_1_2_1_2   value : 0
variable : V_1_2_1_3   value : 0
result= 0 0 0 0 0 1 0 0 0  
 inside saver 
 1- No of Unreferenced Bdds 35

 2- No of Unreferenced Bdds 35
3- No of Unreferenced Bdds 42
inja bayad sefr beshe : 
No of Unreferenced Bdds 43
4- No of Unreferenced Bdds 43
just added end of saver : 
No of Unreferenced Bdds 36

line5= 0 0 0 0 0 1 0 0 0 
----------------------------------
chandta= 100
status:sat
variable : L_1_1_1   value : 0
variable : L_1_1_2   value : 0
variable : L_1_1_3   value : 0
variable : L_2_1_2   value : 0
variable : L_2_1_3   value : 1
variable : L_2_1_4   value : 1
variable : V_1_2_1_1   value : 0
variable : V_1_2_1_2   value : 0
variable : V_1_2_1_3   value : 0
result= 0 0 0 0 1 1 0 0 0  
 inside saver 
 1- No of Unreferenced Bdds 36

 2- No of Unreferenced Bdds 36
3- No of Unreferenced Bdds 43
inja bayad sefr beshe : 
No of Unreferenced Bdds 44
4- No of Unreferenced Bdds 44
just added end of saver : 
No of Unreferenced Bdds 34

line5= 0 0 0 0 1 1 0 0 0 
----------------------------------
chandta= 101
status:sat
variable : L_1_1_1   value : 0
variable : L_1_1_2   value : 1
variable : L_1_1_3   value : 0
variable : L_2_1_2   value : 0
variable : L_2_1_3   value : 0
variable : L_2_1_4   value : 1
variable : V_1_2_1_1   value : 0
variable : V_1_2_1_2   value : 0
variable : V_1_2_1_3   value : 0
result= 0 1 0 0 0 1 0 0 0  
 inside saver 
 1- No of Unreferenced Bdds 34

 2- No of Unreferenced Bdds 34
3- No of Unreferenced Bdds 41
inja bayad sefr beshe : 
No of Unreferenced Bdds 42
4- No of Unreferenced Bdds 42
just added end of saver : 
No of Unreferenced Bdds 33

line5= 0 1 0 0 0 1 0 0 0 
----------------------------------
chandta= 102
status:sat
variable : L_1_1_1   value : 1
variable : L_1_1_2   value : 1
variable : L_1_1_3   value : 0
variable : L_2_1_2   value : 0
variable : L_2_1_3   value : 0
variable : L_2_1_4   value : 1
variable : V_1_2_1_1   value : 0
variable : V_1_2_1_2   value : 0
variable : V_1_2_1_3   value : 0
result= 1 1 0 0 0 1 0 0 0  
 inside saver 
 1- No of Unreferenced Bdds 33

 2- No of Unreferenced Bdds 33
3- No of Unreferenced Bdds 40
inja bayad sefr beshe : 
No of Unreferenced Bdds 41
4- No of Unreferenced Bdds 41
just added end of saver : 
No of Unreferenced Bdds 32

line5= 1 1 0 0 0 1 0 0 0 
----------------------------------
chandta= 103
status:sat
variable : L_1_1_1   value : 1
variable : L_1_1_2   value : 0
variable : L_1_1_3   value : 0
variable : L_2_1_2   value : 0
variable : L_2_1_3   value : 0
variable : L_2_1_4   value : 1
variable : V_1_2_1_1   value : 0
variable : V_1_2_1_2   value : 0
variable : V_1_2_1_3   value : 0
result= 1 0 0 0 0 1 0 0 0  
 inside saver 
 1- No of Unreferenced Bdds 32

 2- No of Unreferenced Bdds 32
3- No of Unreferenced Bdds 39
inja bayad sefr beshe : 
No of Unreferenced Bdds 40
4- No of Unreferenced Bdds 40
just added end of saver : 
No of Unreferenced Bdds 31

line5= 1 0 0 0 0 1 0 0 0 
----------------------------------
chandta= 104
status:sat
variable : L_1_1_1   value : 1
variable : L_1_1_2   value : 0
variable : L_1_1_3   value : 1
variable : L_2_1_2   value : 1
variable : L_2_1_3   value : 1
variable : L_2_1_4   value : 1
variable : V_1_2_1_1   value : 1
variable : V_1_2_1_2   value : 0
variable : V_1_2_1_3   value : 1
result= 1 0 1 1 1 1 1 0 1  
 inside saver 
 1- No of Unreferenced Bdds 31

 2- No of Unreferenced Bdds 31
3- No of Unreferenced Bdds 38
inja bayad sefr beshe : 
No of Unreferenced Bdds 38
4- No of Unreferenced Bdds 38
just added end of saver : 
No of Unreferenced Bdds 34

line5= 1 0 1 1 1 1 1 0 1 
----------------------------------
chandta= 105
status:sat
variable : L_1_1_1   value : 1
variable : L_1_1_2   value : 1
variable : L_1_1_3   value : 1
variable : L_2_1_2   value : 1
variable : L_2_1_3   value : 0
variable : L_2_1_4   value : 1
variable : V_1_2_1_1   value : 1
variable : V_1_2_1_2   value : 0
variable : V_1_2_1_3   value : 1
result= 1 1 1 1 0 1 1 0 1  
 inside saver 
 1- No of Unreferenced Bdds 34

 2- No of Unreferenced Bdds 34
3- No of Unreferenced Bdds 41
inja bayad sefr beshe : 
No of Unreferenced Bdds 40
4- No of Unreferenced Bdds 40
just added end of saver : 
No of Unreferenced Bdds 34

line5= 1 1 1 1 0 1 1 0 1 
----------------------------------
chandta= 106
status:sat
variable : L_1_1_1   value : 1
variable : L_1_1_2   value : 0
variable : L_1_1_3   value : 1
variable : L_2_1_2   value : 1
variable : L_2_1_3   value : 0
variable : L_2_1_4   value : 1
variable : V_1_2_1_1   value : 1
variable : V_1_2_1_2   value : 0
variable : V_1_2_1_3   value : 1
result= 1 0 1 1 0 1 1 0 1  
 inside saver 
 1- No of Unreferenced Bdds 34

 2- No of Unreferenced Bdds 34
3- No of Unreferenced Bdds 41
inja bayad sefr beshe : 
No of Unreferenced Bdds 40
4- No of Unreferenced Bdds 40
just added end of saver : 
No of Unreferenced Bdds 33

line5= 1 0 1 1 0 1 1 0 1 
----------------------------------
chandta= 107
status:sat
variable : L_1_1_1   value : 1
variable : L_1_1_2   value : 1
variable : L_1_1_3   value : 0
variable : L_2_1_2   value : 1
variable : L_2_1_3   value : 0
variable : L_2_1_4   value : 1
variable : V_1_2_1_1   value : 1
variable : V_1_2_1_2   value : 0
variable : V_1_2_1_3   value : 0
result= 1 1 0 1 0 1 1 0 0  
 inside saver 
 1- No of Unreferenced Bdds 33

 2- No of Unreferenced Bdds 33
3- No of Unreferenced Bdds 40
inja bayad sefr beshe : 
No of Unreferenced Bdds 41
4- No of Unreferenced Bdds 41
just added end of saver : 
No of Unreferenced Bdds 36

line5= 1 1 0 1 0 1 1 0 0 
----------------------------------
chandta= 108
status:sat
variable : L_1_1_1   value : 1
variable : L_1_1_2   value : 1
variable : L_1_1_3   value : 0
variable : L_2_1_2   value : 1
variable : L_2_1_3   value : 0
variable : L_2_1_4   value : 1
variable : V_1_2_1_1   value : 1
variable : V_1_2_1_2   value : 0
variable : V_1_2_1_3   value : 1
result= 1 1 0 1 0 1 1 0 1  
 inside saver 
 1- No of Unreferenced Bdds 36

 2- No of Unreferenced Bdds 36
3- No of Unreferenced Bdds 43
inja bayad sefr beshe : 
No of Unreferenced Bdds 42
4- No of Unreferenced Bdds 42
just added end of saver : 
No of Unreferenced Bdds 33

line5= 1 1 0 1 0 1 1 0 1 
----------------------------------
chandta= 109
status:sat
variable : L_1_1_1   value : 1
variable : L_1_1_2   value : 0
variable : L_1_1_3   value : 0
variable : L_2_1_2   value : 1
variable : L_2_1_3   value : 0
variable : L_2_1_4   value : 1
variable : V_1_2_1_1   value : 1
variable : V_1_2_1_2   value : 0
variable : V_1_2_1_3   value : 0
result= 1 0 0 1 0 1 1 0 0  
 inside saver 
 1- No of Unreferenced Bdds 33

 2- No of Unreferenced Bdds 33
3- No of Unreferenced Bdds 40
inja bayad sefr beshe : 
No of Unreferenced Bdds 41
4- No of Unreferenced Bdds 41
just added end of saver : 
No of Unreferenced Bdds 37

line5= 1 0 0 1 0 1 1 0 0 
----------------------------------
chandta= 110
status:sat
variable : L_1_1_1   value : 1
variable : L_1_1_2   value : 0
variable : L_1_1_3   value : 0
variable : L_2_1_2   value : 1
variable : L_2_1_3   value : 0
variable : L_2_1_4   value : 1
variable : V_1_2_1_1   value : 1
variable : V_1_2_1_2   value : 0
variable : V_1_2_1_3   value : 1
result= 1 0 0 1 0 1 1 0 1  
 inside saver 
 1- No of Unreferenced Bdds 37

 2- No of Unreferenced Bdds 37
3- No of Unreferenced Bdds 44
inja bayad sefr beshe : 
No of Unreferenced Bdds 43
4- No of Unreferenced Bdds 43
just added end of saver : 
No of Unreferenced Bdds 34

line5= 1 0 0 1 0 1 1 0 1 
----------------------------------
chandta= 111
status:sat
variable : L_1_1_1   value : 1
variable : L_1_1_2   value : 0
variable : L_1_1_3   value : 0
variable : L_2_1_2   value : 1
variable : L_2_1_3   value : 1
variable : L_2_1_4   value : 1
variable : V_1_2_1_1   value : 1
variable : V_1_2_1_2   value : 0
variable : V_1_2_1_3   value : 0
result= 1 0 0 1 1 1 1 0 0  
 inside saver 
 1- No of Unreferenced Bdds 34

 2- No of Unreferenced Bdds 34
3- No of Unreferenced Bdds 41
inja bayad sefr beshe : 
No of Unreferenced Bdds 42
4- No of Unreferenced Bdds 42
just added end of saver : 
No of Unreferenced Bdds 36

line5= 1 0 0 1 1 1 1 0 0 
----------------------------------
chandta= 112
status:sat
variable : L_1_1_1   value : 1
variable : L_1_1_2   value : 0
variable : L_1_1_3   value : 0
variable : L_2_1_2   value : 1
variable : L_2_1_3   value : 1
variable : L_2_1_4   value : 1
variable : V_1_2_1_1   value : 1
variable : V_1_2_1_2   value : 0
variable : V_1_2_1_3   value : 1
result= 1 0 0 1 1 1 1 0 1  
 inside saver 
 1- No of Unreferenced Bdds 36

 2- No of Unreferenced Bdds 36
3- No of Unreferenced Bdds 43
inja bayad sefr beshe : 
No of Unreferenced Bdds 42
4- No of Unreferenced Bdds 42
just added end of saver : 
No of Unreferenced Bdds 32

line5= 1 0 0 1 1 1 1 0 1 
----------------------------------
unsat
line4= 1 0 0 0 1 1 0 0 0 1 1 0 0 0 0 0 0 0 0 1 0 0 0 0 0 0 0 0 1 0 0 0 0 0 0 1 0 0 0 0 1 0 0 0 1 1 0 0 0 1 0 0 0 1 1 0 0 0 0 0 0 0 1 0 0 0 0 0 0 0 0 1 1 0 0 0 0 0 0 0 0 1 0 0 0 1 0 0 0 0 0 0 0 0 0 0 0 0 0 0 0 0 0 1 0 0 0 0 1 1 0 0 0 0 0 0 1 1 1 0 1 0 0 1 0 0 1 1 0 1 0 0 1 0 1 1 0 0 1 1 0 1 0 0 1 0 0 1 1 0 1 0 1 1 0 0 1 0 0 1 0 0 1 0 0 1 0 0 1 0 1 0 0 0 1 1 0 0 0 0 0 0 0 1 0 0 0 0 0 0 0 0 1 1 0 0 0 1 0 0 0 1 0 0 0 0 1 0 1 0 1 0 0 0 0 1 0 1 0 1 0 0 0 0 0 0 1 0 0 1 0 0 1 1 0 1 0 1 1 0 0 1 1 1 1 0 1 1 0 1 1 1 1 1 0 0 1 0 0 1 1 1 1 0 1 1 0 1 1 0 0 1 0 0 1 0 0 1 0 0 1 0 1 1 0 0 1 0 1 1 0 0 1 0 0 1 0 1 0 1 1 0 0 1 0 0 1 1 1 1 0 0 1 0 0 1 0 1 1 0 0 1 0 1 1 1 1 1 0 0 1 0 1 1 0 1 0 0 0 0 0 1 1 1 1 0 0 0 0 0 1 1 0 1 0 1 0 0 0 1 1 1 1 0 0 0 0 0 0 1 0 1 0 1 0 0 0 0 1 0 1 0 0 0 0 0 0 1 1 1 0 1 0 0 1 0 1 1 1 0 1 0 0 1 1 1 1 1 1 1 0 1 1 0 1 1 1 1 1 0 1 1 1 1 0 1 1 1 0 1 0 0 1 0 1 1 1 0 1 0 1 0 1 1 0 1 0 0 1 1 0 1 1 1 1 0 0 1 1 0 1 1 0 1 0 0 1 0 0 1 1 1 1 0 0 1 0 0 0 1 0 0 0 0 0 0 0 0 1 1 0 0 0 0 0 0 1 1 0 0 0 0 0 0 0 1 1 1 0 0 0 0 0 0 1 1 0 0 0 0 0 1 0 0 1 0 0 0 0 0 1 0 1 1 1 0 0 0 0 1 0 0 1 1 0 0 0 0 1 0 0 1 1 1 0 0 0 1 0 0 1 0 1 0 0 0 1 0 0 1 1 1 0 0 0 0 0 0 1 0 1 0 0 0 0 1 1 0 1 1 1 1 1 0 1 1 0 1 1 1 1 1 1 1 1 1 1 1 1 1 1 1 0 1 0 0 1 1 0 1 1 1 1 0 0 1 1 0 1 1 0 1 1 0 1 1 0 1 1 1 1 1 0 1 1 0 1 1 0 1 0 1 1 1 0 1 1 0 1 1 1 1 1 0 1 1 0 0 0 1 1 1 0 0 1 0 0 0 0 1 1 0 0 1 1 0 0 0 1 1 0 0 1 0 0 1 0 1 1 0 0 1 0 0 1 1 1 1 0 0 1 1 0 1 0 1 1 0 0 1 1 1 0 0 0 1 0 0 1 1 0 0 0 0 1 0 0 1 1 1 1 0 0 1 0 0 1 1 0 1 0 0 1 0 0 1 0 1 1 0 0 1 0 0 1 0 1 0 0 0 1 0 0 1 0 0 1 0 0 1 0 0 1 0 0 0 0 0 1 0 0 1 0 1 1 1 0 1 0 0 1 0 0 1 1 0 1 0 0 1 0 1 0 1 0 1 0 0 1 0 0 0 1 0 1 0 0 1 0 1 0 1 1 1 0 1 0 1 1 0 0 1 1 0 1 0 0 1 0 0 1 1 0 1 0 0 0 0 1 0 1 0 0 0 0 0 0 1 1 1 0 0 0 0 1 0 1 0 1 0 0 0 0 0 0 0 0 1 0 0 0 0 0 0 0 1 1 0 0 0 0 1 0 0 0 1 0 0 0 1 1 0 0 0 1 0 0 0 1 0 0 0 0 1 0 0 0 1 0 1 1 1 1 1 0 1 1 1 1 1 0 1 1 0 1 1 0 1 1 0 1 1 0 1 1 1 0 1 0 1 1 0 0 1 1 0 1 0 1 1 0 1 1 0 0 1 0 1 1 0 0 1 0 0 1 0 1 1 0 1 1 0 0 1 1 1 1 0 0 1 0 0 1 1 1 1 0 1 
ehsan=1
chandta= 1
status:sat
variable : L_1_1_3   value : 0
variable : V_1_2_1_3   value : 0
result= 0 0 inside tabdil
inja
No of Unreferenced Bdds 34
inja2
No of Unreferenced Bdds 34
inja3
No of Unreferenced Bdds 34
inja bayad yeki bashe 
No of Unreferenced Bdds 34

line5= 0 0 
----------------------------------
chandta= 2
status:sat
variable : L_1_1_3   value : 1
variable : V_1_2_1_3   value : 0
result= 1 0  
 inside saver 
 1- No of Unreferenced Bdds 34

 2- No of Unreferenced Bdds 34
3- No of Unreferenced Bdds 35
inja bayad sefr beshe : 
No of Unreferenced Bdds 35
4- No of Unreferenced Bdds 35
just added end of saver : 
No of Unreferenced Bdds 33

line5= 1 0 
----------------------------------
chandta= 3
status:sat
variable : L_1_1_3   value : 1
variable : V_1_2_1_3   value : 1
result= 1 1  
 inside saver 
 1- No of Unreferenced Bdds 33

 2- No of Unreferenced Bdds 33
3- No of Unreferenced Bdds 34
inja bayad sefr beshe : 
No of Unreferenced Bdds 34
4- No of Unreferenced Bdds 34
just added end of saver : 
No of Unreferenced Bdds 34

line5= 1 1 
----------------------------------
unsat
line4= 0 0 1 0 1 1 

done
result:
000---00-  1
001--000-  1
001--1001  1
010-0-00-  1
010-1-01-  1
011-0000-  1
011-01001  1
011-1001-  1
011-11011  1
1000--00-  1
10010-10-  1
10011010-  1
100111100  1
1010-000-  1
1010-1001  1
1011-010-  1
1011-1101  1
11000-00-  1
11001-01-  1
11010-10-  1
11011-11-  1
11100000-  1
111001001  1
11101001-  1
111011011  1
11110010-  1
111101101  1
11111011-  1
111111111  1
result2:
00-------  1
1--------  1
final result:
000---00-  1
001--000-  1
001--1001  1
1000--00-  1
10010-10-  1
10011010-  1
100111100  1
1010-000-  1
1010-1001  1
1011-010-  1
1011-1101  1
11000-00-  1
11001-01-  1
11010-10-  1
11011-11-  1
11100000-  1
111001001  1
11101001-  1
111011011  1
11110010-  1
111101101  1
11111011-  1
111111111  1
T1 =Time needed to solve first problem is 0.099605 seconds .
T2 =Time needed to solve incremental problem is 0.014567 seconds .
T3 =Time needed to find BDD AND solution based on 1st BDD and 2nd BDD is 1.2e-05 seconds .
T4 =T2 + T3 = 0.014579 seconds .
T5 =T1 + T2 + T3 = 0.114185 seconds .
