( %V_1_2_1_1 + 1 - %L_1_1_1 + 1 - %L_2_1_2 >= 1 )
 ( 1 - %V_1_2_1_1 + %L_1_1_1 >= 1 )
 ( 1 - %V_1_2_1_1 + %L_2_1_2 >= 1 )
 ( %V_1_2_1_2 + 1 - %L_1_1_2 + 1 - %L_2_1_3 >= 1 )
 ( 1 - %V_1_2_1_2 + %L_1_1_2 >= 1 )
 ( 1 - %V_1_2_1_2 + %L_2_1_3 >= 1 )
 ( %V_1_2_1_3 + 1 - %L_1_1_3 + 1 - %L_2_1_4 >= 1 )
 ( 1 - %V_1_2_1_3 + %L_1_1_3 >= 1 )
 ( 1 - %V_1_2_1_3 + %L_2_1_4 >= 1 )
 ( %V_1_2_2_1 + 1 - %L_1_2_1 + 1 - %L_2_2_2 >= 1 )
 ( 1 - %V_1_2_2_1 + %L_1_2_1 >= 1 )
( 1 - %V_1_2_2_1 + %L_2_2_2 >= 1 )
 ( %V_1_2_2_2 + 1 - %L_1_2_2 + 1 - %L_2_2_3 >= 1 )
 ( 1 - %V_1_2_2_2 + %L_1_2_2 >= 1 )
 ( 1 - %V_1_2_2_2 + %L_2_2_3 >= 1 )
( %V_1_2_2_3 + 1 - %L_1_2_3 + 1 - %L_2_2_4 >= 1 )