( %V_1_2_1_1 + 1 - %L_1_1_1 + 1 - %L_2_1_2 >= 1 )
 ( 1 - %V_1_2_1_1 + %L_1_1_1 >= 1 )
 ( 1 - %V_1_2_1_1 + %L_2_1_2 >= 1 )
 ( %V_1_2_1_2 + 1 - %L_1_1_2 + 1 - %L_2_1_3 >= 1 )
 ( 1 - %V_1_2_1_2 + %L_1_1_2 >= 1 )